3.000000000000000000e+00 1.934726966510795272e-41
3.023379074186677951e+00 2.290057921405019422e-41
3.046940342076630781e+00 2.942978857093688237e-41
3.070685223509894257e+00 4.284559969958491023e-41
3.094615149391351849e+00 7.754607905243992081e-41
3.118731561776963979e+00 2.301408948369722096e-40
3.143035913960669614e+00 1.226416483504118277e-38
3.167529670561962885e+00 2.972039870901153676e-40
3.192214307614152702e+00 5.397780648694970061e-41
3.217091312653314272e+00 1.952695852268462696e-41
3.242162184807927616e+00 9.202562858779794807e-42
3.267428434889215527e+00 4.998250259330269206e-42
3.292891585482193850e+00 2.967918730575477429e-42
3.318553171037419425e+00 1.874186692532241722e-42
3.344414737963458339e+00 1.238272247347620843e-42
3.370477844720079830e+00 8.470752737656768735e-43
3.396744061912168711e+00 5.957204195885454090e-43
3.423214972384368782e+00 4.285284822578134906e-43
3.449892171316475409e+00 3.141322103906482435e-43
3.476777266319557746e+00 2.339969996916976225e-43
3.503871877532837242e+00 1.767327124381708758e-43
3.531177637721321538e+00 1.351060481690721259e-43
3.558696192374196876e+00 1.043935463298602486e-43
3.586429199803984336e+00 8.143578408643348781e-44
3.614378331246479004e+00 6.407491777275329191e-44
3.642545270961456083e+00 5.080991754090653507e-44
3.670931716334169703e+00 4.057957414226301615e-44
3.699539377977637766e+00 3.262270154149387326e-44
3.728369979835728820e+00 2.638618701611050423e-44
3.757425259287050068e+00 2.146338112682414345e-44
3.786706967249639177e+00 1.755212263219663180e-44
3.816216868286484765e+00 1.442570630953097925e-44
3.845956740711859112e+00 1.191252574370734836e-44
3.875928376698477340e+00 9.881619323908513232e-45
3.906133582385504788e+00 8.232289342672105605e-45
3.936574177987393064e+00 6.886567411636595747e-45
3.967251997903568306e+00 5.783692322629750330e-45
3.998168890828979194e+00 4.876026243984601076e-45
4.029326719865498063e+00 4.126009269875844524e-45
4.060727362634198201e+00 3.503870580216142790e-45
4.092372711388496676e+00 2.985895711049024767e-45
4.124264673128191561e+00 2.553105890157403232e-45
4.156405169714378012e+00 2.190245020931502906e-45
4.188796137985258738e+00 1.884997994960647251e-45
4.221439529872867524e+00 1.627384108299756790e-45
4.254337312520692471e+00 1.409283857706272393e-45
4.287491468402215844e+00 1.224067936321235237e-45
4.320903995440390055e+00 1.066386725815424753e-45
4.354576907128027585e+00 9.317325372355328551e-46
4.388512232649141254e+00 8.163729081360739478e-46
4.422712017001222407e+00 7.172632173753780402e-46
4.457178321118484554e+00 6.318776217065672326e-46
4.491913221996044037e+00 5.581146440844362974e-46
4.526918812815098114e+00 4.942210083077831561e-46
4.562197203069056073e+00 4.387299876357581118e-46
4.597750518690657096e+00 3.904113400108564699e-46
4.633580902180091776e+00 3.482305275985393278e-46
4.669690512734105958e+00 3.113153995374307436e-46
4.706081526376117985e+00 2.789288944330405630e-46
4.742756136087351138e+00 2.504466137286315315e-46
4.779716551938987479e+00 2.253383473593968159e-46
4.816965001225343990e+00 2.031528161220265961e-46
4.854503728598102974e+00 1.835050394871548354e-46
4.892334996201570085e+00 1.660658516370969546e-46
4.930461083808994616e+00 1.505531802082154920e-46
4.968884288959960038e+00 1.367247743252018623e-46
5.007606927098831484e+00 1.243721281901985525e-46
5.046631331714285906e+00 1.133153923795120133e-46
5.085959854479939146e+00 1.033991030652685281e-46
5.125594865396055688e+00 9.448859052970536004e-47
5.165538752932373079e+00 8.646695272694756587e-47
5.205793924172026799e+00 7.923249976656007665e-47
5.246362804956618220e+00 7.269659192502463998e-47
5.287247840032386570e+00 6.678180689448934788e-47
5.328451493197543520e+00 6.142038338965155825e-47
5.369976247450735762e+00 5.655289672230528856e-47
5.411824605140684419e+00 5.212712990449145679e-47
5.453999088116976424e+00 4.809710939704945822e-47
5.496502237882029185e+00 4.442228009736942420e-47
5.539336615744256065e+00 4.106679837369692573e-47
5.582504802972412250e+00 3.799892481136372311e-47
5.626009400951136996e+00 3.519050196410026116e-47
5.669853031337731331e+00 3.261650428973723088e-47
5.714038336220133019e+00 3.025464964992562566e-47
5.758567978276136756e+00 2.808506337454407667e-47
5.803444640933850707e+00 2.608998727941676217e-47
5.848671028533408034e+00 2.425352713941059510e-47
5.894249866489925438e+00 2.255697569737037387e-47
5.940183901457753102e+00 2.098079708013826498e-47
5.986475901495984075e+00 1.952683414823023604e-47
6.033128656235260401e+00 1.818449668684642469e-47
6.080144977045891963e+00 1.694422854158112636e-47
6.127527697207263202e+00 1.579739419675761708e-47
6.175279672078572979e+00 1.473617910839881936e-47
6.223403779270908487e+00 1.375350199106965831e-47
6.271902918820651429e+00 1.284293752729861742e-47
6.320780013364233341e+00 1.199864810945912788e-47
6.370038008314270250e+00 1.121532347797633376e-47
6.419679872037050039e+00 1.048812729065016144e-47
6.469708596031408021e+00 9.812649676426407876e-48
6.520127195109008511e+00 9.184865122883851015e-48
6.570938707576019056e+00 8.601094989996602191e-48
6.622146195416195980e+00 8.057974078470495563e-48
6.673752744475415000e+00 7.549403063428633289e-48
6.725761464647628252e+00 7.074338065655207948e-48
6.778175490062257502e+00 6.631838777370330500e-48
6.830997979273086607e+00 6.219495669276961116e-48
6.884232115448578604e+00 5.835093685570862051e-48
6.937881106563702716e+00 5.476594876288047032e-48
6.991948185593272136e+00 5.142122773310415144e-48
7.046436610706736658e+00 4.829948268359354311e-48
7.101349665464545602e+00 4.538476895189757168e-48
7.156690659016025080e+00 4.266237335368855980e-48
7.212462926298772281e+00 4.011870986836620349e-48
7.268669828239636921e+00 3.774122539903356242e-48
7.325314751957265003e+00 3.551831407490747709e-48
7.382401110966188895e+00 3.343923951378528101e-48
7.439932345382551659e+00 3.149406413870343132e-48
7.497911922131407003e+00 2.967358469039825048e-48
7.556343335155633945e+00 2.796927374016787380e-48
7.615230105626504375e+00 2.637322591358278474e-48
7.674575782155860004e+00 2.487810922905622862e-48
7.734383941009959962e+00 2.347712022111773595e-48
7.794658186324999072e+00 2.216394319100274453e-48
7.855402150324295896e+00 2.093271270101616388e-48
7.916619493537168317e+00 1.977797923207567791e-48
7.978313905019535746e+00 1.869467776601279357e-48
8.040489102576222180e+00 1.767809874013838594e-48
8.103148832984988559e+00 1.672386161153350401e-48
8.166296872222336134e+00 1.582789040942168960e-48
8.229937025691045349e+00 1.498639117828079379e-48
8.294073128449483079e+00 1.419583131380168716e-48
8.358709045442731522e+00 1.345292054191860293e-48
8.423848671735486349e+00 1.275459324032497352e-48
8.489495932746768503e+00 1.209799230372563427e-48
8.555654784486495856e+00 1.148045406785228902e-48
8.622329213793868519e+00 1.089949457214782814e-48
8.689523238577617548e+00 1.035279672216631797e-48
8.757240908058138373e+00 9.838198465305483022e-49
8.825486303011505385e+00 9.353681857832158754e-49
8.894263536015376559e+00 8.897362999829827117e-49
8.963576751696830769e+00 8.467482595854988828e-49
9.033430126982132435e+00 8.062397298648691481e-49
9.103827871348423528e+00 7.680571702085179313e-49
9.174774227077424626e+00 7.320570841798866506e-49
9.246273469511047338e+00 6.981053311430059744e-49
9.318329907309045979e+00 6.660764845111130608e-49
9.390947882708687189e+00 6.358532365319182452e-49
9.464131771786378877e+00 6.073258447245653201e-49
9.537885984721404142e+00 5.803916216292354542e-49
9.612214966061698007e+00 5.549544572462035729e-49
9.687123194991649200e+00 5.309243730165189439e-49
9.762615185602044221e+00 5.082171181339068701e-49
9.838695487162103959e+00 4.867537789808476478e-49
9.915368684393603971e+00 4.664604277817571047e-49
9.992639397747167251e+00 4.472677907546299996e-49
1.007051228368071882e+01 4.296931514532622552e-49
1.014899203494005953e+01 4.130931633997000106e-49
1.022808338084167801e+01 3.973514588013686130e-49
1.030779108755775475e+01 3.824190979746148312e-49
1.038811995840335101e+01 3.682501308009756292e-49
1.046907483412588746e+01 3.548014068799197767e-49
1.055066059319685934e+01 3.420323921819605474e-49
1.063288215210579679e+01 3.299050012650000794e-49
1.071574446565655414e+01 3.183834409385651902e-49
1.079925252726591012e+01 3.074340636584833133e-49
1.088341136926445074e+01 2.970252306279819459e-49
1.096822606319983606e+01 2.871271849754801079e-49
1.105370172014243657e+01 2.777119327965437149e-49
1.113984349099330551e+01 2.687531319127670503e-49
1.122665656679461144e+01 2.602259885065641314e-49
1.131414617904242803e+01 2.521071605403913016e-49
1.140231760000200723e+01 2.443746679432459740e-49
1.149117614302551083e+01 2.370078072437618812e-49
1.158072716287217041e+01 2.299870720396739080e-49
1.167097605603098742e+01 2.232940820016345170e-49
1.176192826104595213e+01 2.169115111573525101e-49
1.185358925884374592e+01 2.108230247650221537e-49
1.194596457306404602e+01 2.050132186863519974e-49
1.203905977039241115e+01 1.994675629557134150e-49
1.213288046089569505e+01 1.941723488542946684e-49
1.222743229836014933e+01 1.891146398396915363e-49
1.232272098063213228e+01 1.842822249454205315e-49
1.241875224996144311e+01 1.796635750092410556e-49
1.251553189334737759e+01 1.752478031047797999e-49
1.261306574288748017e+01 1.710246257712159100e-49
1.271135967612895179e+01 1.669843269982572511e-49
1.281041961642286786e+01 1.631177257780499728e-49
1.291025153328114428e+01 1.594161436316386422e-49
1.301086144273622835e+01 1.558713762131639433e-49
1.311225540770366216e+01 1.524756650561699805e-49
1.321443953834745422e+01 1.492216718669866071e-49
1.331741999244825436e+01 1.461024542237549863e-49
1.342120297577444710e+01 1.431114428984161246e-49
1.352579474245614577e+01 1.402424201273203727e-49
1.363120159536203424e+01 1.374894997184976146e-49
1.373742988647920527e+01 1.348471081370719088e-49
1.384448601729596717e+01 1.323099667854204106e-49
1.395237643918756554e+01 1.298730751171771420e-49
1.406110765380496730e+01 1.275316949257601549e-49
1.417068621346669133e+01 1.252813362162012059e-49
1.428111872155361617e+01 1.231177424016010487e-49
1.439241183290693016e+01 1.210368777497688235e-49
1.450457225422918128e+01 1.190349151993424773e-49
1.461760674448840014e+01 1.171082246261357167e-49
1.473152211532542033e+01 1.152533618884713715e-49
1.484632523146438210e+01 1.134670588745303655e-49
1.496202301112636057e+01 1.117462134170689149e-49
1.507862242644633000e+01 1.100878807042000082e-49
1.519613050389326148e+01 1.084892643944883376e-49
1.531455432469357625e+01 1.069477085897588423e-49
1.543390102525788343e+01 1.054606904960301116e-49
1.555417779761100050e+01 1.040258127717123091e-49
1.567539188982537013e+01 1.026407973032884957e-49
1.579755060645786280e+01 1.013034785222714735e-49
1.592066130898992427e+01 1.000117973827854538e-49
1.604473141627120114e+01 9.876379590423748794e-50
1.616976840496664281e+01 9.755761164054605574e-50
1.629577981000701570e+01 9.639147268231257263e-50
1.642277322504298454e+01 9.526369298105668811e-50
1.655075630290274091e+01 9.417266766980726152e-50
1.667973675605313844e+01 9.311686899470826279e-50
1.680972235706447293e+01 9.209484220686999758e-50
1.694072093907889709e+01 9.110520180493502499e-50
1.707274039628241269e+01 9.014662790667110315e-50
1.720578868438059672e+01 8.921786296335794778e-50
1.733987382107807917e+01 8.831770842638019639e-50
1.747500388656161974e+01 8.744502184546985313e-50
1.761118702398708180e+01 8.659871396433671185e-50
1.774843143997016526e+01 8.577774598332881643e-50
1.788674540508091226e+01 8.498112703592373455e-50
1.802613725434210679e+01 8.420791180891116862e-50
1.816661538773160700e+01 8.345719807744515257e-50
1.830818827068848265e+01 8.272812483006340260e-50
1.845086443462317405e+01 8.201986992914103926e-50
1.859465247743164085e+01 8.133164837577966063e-50
1.873956106401342936e+01 8.066271033629526022e-50
1.888559892679387175e+01 8.001233946398602635e-50
1.903277486625032822e+01 7.937985124580481276e-50
1.918109775144246498e+01 7.876459143282983313e-50
1.933057652054675302e+01 7.816593454599026532e-50
1.948122018139512690e+01 7.758328246646853347e-50
1.963303781201774356e+01 7.701606318076056734e-50
1.978603856119007531e+01 7.646372938135344715e-50
1.994023164898425549e+01 7.592575742137060925e-50
2.009562636732463758e+01 7.540164607283963302e-50
2.025223208054777757e+01 7.489091548690757504e-50
2.041005822596676111e+01 7.439310619732944762e-50
2.056911431443985094e+01 7.390777809870773583e-50
2.072940993094369944e+01 7.343450957615787573e-50
2.089095473515089907e+01 7.297289660041510771e-50
2.105375846201209811e+01 7.252255192660176495e-50
2.121783092234269219e+01 7.208310429593048720e-50
2.138318200341397457e+01 7.165419768132077939e-50
2.154982166954898304e+01 7.123549059166300747e-50
2.171775996272300446e+01 7.082665538111422849e-50
2.188700700316866232e+01 7.042737764018649578e-50
2.205757298998579330e+01 7.003735555974170767e-50
2.222946820175610938e+01 6.965629934962277547e-50
2.240270299716252822e+01 6.928393072937963327e-50
2.257728781561344533e+01 6.891998235065679553e-50
2.275323317787184862e+01 6.856419735558875182e-50
2.293054968668926463e+01 6.821632885643921746e-50
2.310924802744472473e+01 6.787613953493075285e-50
2.328933896878871934e+01 6.754340116558569348e-50
2.347083336329205494e+01 6.721789424447072116e-50
2.365374214809989795e+01 6.689940760122717549e-50
2.383807634559089195e+01 6.658773799990456208e-50
2.402384706404131620e+01 6.628268983483559727e-50
2.421106549829451282e+01 6.598407476577117297e-50
2.439974293043556486e+01 6.569171139770556543e-50
2.458989073047107254e+01 6.540542500858796303e-50
2.478152035701439360e+01 6.512504722606596454e-50
2.497464335797616286e+01 6.485041579221432436e-50
2.516927137126014813e+01 6.458137425549863040e-50
2.536541612546457714e+01 6.431777176229130231e-50
2.556308944058897836e+01 6.405946280395606213e-50
2.576230322874638290e+01 6.380630698388408348e-50
2.596306949488122484e+01 6.355816882064136713e-50
2.616540033749279459e+01 6.331491752508463484e-50
2.636930794936425215e+01 6.307642681122302756e-50
2.657480461829742424e+01 6.284257471030659704e-50
2.678190272785330706e+01 6.261324339544163127e-50
2.699061475809826760e+01 6.238831900271539971e-50
2.720095328635613185e+01 6.216769147684432278e-50
2.741293098796615979e+01 6.195125441543429756e-50
2.762656063704679710e+01 6.173890492009786794e-50
2.784185510726555535e+01 6.153054345100146928e-50
2.805882737261472570e+01 6.132607369984649461e-50
2.827749050819322818e+01 6.112540245719771586e-50
2.849785769099460708e+01 6.092843948974249269e-50
2.871994220070099502e+01 6.073509742578706346e-50
2.894375742048341138e+01 6.054529164208950836e-50
2.916931683780831364e+01 6.035894015004530460e-50
2.939663404525025925e+01 6.017596350543099601e-50
2.962572274131109040e+01 5.999628470168407681e-50
2.985659673124544611e+01 5.981982907820706666e-50
3.008926992789260524e+01 5.964652423535440475e-50
3.032375635251500157e+01 5.947629994018055534e-50
3.056007013564306618e+01 5.930908805661014386e-50
3.079822551792681296e+01 5.914482245526842533e-50
3.103823685099403207e+01 5.898343894726385732e-50
3.128011859831505959e+01 5.882487520727912873e-50
3.152388533607441090e+01 5.866907070925672048e-50
3.176955175404921761e+01 5.851596665754517632e-50
3.201713265649436124e+01 5.836550592467700241e-50
3.226664296303464141e+01 5.821763299243298268e-50
3.251809770956392498e+01 5.807229389250904788e-50
3.277151204915110583e+01 5.792943615595100990e-50
3.302690125295332990e+01 5.778900875172231214e-50
3.328428071113629017e+01 5.765096204464377292e-50
3.354366593380158434e+01 5.751524774220163701e-50
3.380507255192139837e+01 5.738181884873631344e-50
3.406851631828053684e+01 5.725062962132343245e-50
3.433401310842558019e+01 5.712163552750256902e-50
3.460157892162165183e+01 5.699479320334269814e-50
3.487122988181658201e+01 5.687006041258334607e-50
3.514298223861248260e+01 5.674739601311098216e-50
3.541685236824501004e+01 5.662675991651023619e-50
3.569285677457028783e+01 5.650811305559355755e-50
3.597101209005933953e+01 5.639141734999033173e-50
3.625133507680045142e+01 5.627663567444426574e-50
3.653384262750932976e+01 5.616373182817329892e-50
3.681855176654698880e+01 5.605267050522746011e-50
3.710547965094568923e+01 5.594341726515989799e-50
3.739464357144293416e+01 5.583593850783281350e-50
3.768606095352331664e+01 5.573020144431720043e-50
3.797974935846865918e+01 5.562617407410848705e-50
3.827572648441636005e+01 5.552382515960091170e-50
3.857401016742574740e+01 5.542312420377156171e-50
3.887461838255303803e+01 5.532404142568453389e-50
3.917756924493453852e+01 5.522654774157025613e-50
3.948288101087822355e+01 5.513061474197318817e-50
3.979057207896390480e+01 5.503621467314920679e-50
4.010066099115206129e+01 5.494332041642443497e-50
4.041316643390103280e+01 5.485190547149189256e-50
4.072810723929327992e+01 5.476194393659681018e-50
4.104550238617008517e+01 5.467341049237196344e-50
4.136537100127531374e+01 5.458628038604470159e-50
4.168773236040807717e+01 5.450052941379370791e-50
4.201260588958419362e+01 5.441613390664768279e-50
4.234001116620692784e+01 5.433307071476827048e-50
4.266996792024676921e+01 5.425131719401384025e-50
4.300249603543031185e+01 5.417085119184195818e-50
4.333761555043851388e+01 5.409165103347643402e-50
4.367534666011432876e+01 5.401369550989425049e-50
4.401570971667955945e+01 5.393696386495539423e-50
4.435872523096138309e+01 5.386143578365323019e-50
4.470441387362842534e+01 5.378709138053666980e-50
4.505279647643626362e+01 5.371391118838929873e-50
4.540389403348287800e+01 5.364187614783273676e-50
4.575772770247383647e+01 5.357096759667943806e-50
4.611431880599715782e+01 5.350116725985995435e-50
4.647368883280831398e+01 5.343245723995532211e-50
4.683585943912525096e+01 5.336482000759332134e-50
4.720085244993330065e+01 5.329823839261322958e-50
4.756868986030042379e+01 5.323269557508627180e-50
4.793939383670277010e+01 5.316817507688699364e-50
4.831298671836032099e+01 5.310466075366047640e-50
4.868949101858314776e+01 5.304213678654889631e-50
4.906892942612816455e+01 5.298058767489748518e-50
4.945132480656627649e+01 5.291999822862712069e-50
4.983670020366032816e+01 5.286035356105011271e-50
5.022507884075386642e+01 5.280163908190284952e-50
5.061648412217044779e+01 5.274384049058157310e-50
5.101093963462410130e+01 5.268694376973949885e-50
5.140846914864078343e+01 5.263093517872835986e-50
5.180909661999065463e+01 5.257580124764876903e-50
5.221284619113180980e+01 5.252152877140808269e-50
5.261974219266517139e+01 5.246810480386924125e-50
5.302980914480057351e+01 5.241551665215443511e-50
5.344307175883443506e+01 5.236375187158257115e-50
5.385955493863902177e+01 5.231279825994911427e-50
5.427928378216299166e+01 5.226264385284604488e-50
5.470228358294394866e+01 5.221327691851294428e-50
5.512857983163273445e+01 5.216468595289881515e-50
5.555819821752935184e+01 5.211685967536267838e-50
5.599116463013128708e+01 5.206978702384613089e-50
5.642750516069339994e+01 5.202345715056868191e-50
5.686724610380037603e+01 5.197785941783121532e-50
5.731041395895132240e+01 5.193298339377289518e-50
5.775703543215650626e+01 5.188881884841806594e-50
5.820713743754681246e+01 5.184535574980415929e-50
5.866074709899567097e+01 5.180258425998746911e-50
5.911789175175346145e+01 5.176049473164478266e-50
5.957859894409484980e+01 5.171907770427028229e-50
6.004289643897896411e+01 5.167832390071979499e-50
6.051081221572227520e+01 5.163822422395625300e-50
6.098237447168475001e+01 5.159876975360887986e-50
6.145761162396918564e+01 5.155995174280842221e-50
6.193655231113346105e+01 5.152176161512261661e-50
6.241922539491645239e+01 5.148419096149392602e-50
6.290565996197736354e+01 5.144723153729145081e-50
6.339588532564837209e+01 5.141087525943801632e-50
6.388993102770116650e+01 5.137511420365776851e-50
6.438782684012728907e+01 5.133994060173011283e-50
6.488960276693207163e+01 5.130534683888225976e-50
6.539528904594276071e+01 5.127132545116179172e-50
6.590491615063088204e+01 5.123786912305759607e-50
6.641851479194833985e+01 5.120497068494168315e-50
6.693611592017829537e+01 5.117262311078406847e-50
6.745775072680027051e+01 5.114081951579607720e-50
6.798345064636970392e+01 5.110955315427213458e-50
6.851324735841228630e+01 5.107881741730181834e-50
6.904717278933314617e+01 5.104860583075628562e-50
6.958525911434054478e+01 5.101891205314476246e-50
7.012753875938497572e+01 5.098972987363693992e-50
7.067404440311324265e+01 5.096105321010286097e-50
7.122480897883757223e+01 5.093287610721097730e-50
7.177986567652027361e+01 5.090519273456727437e-50
7.233924794477398734e+01 5.087799738493602046e-50
7.290298949287712560e+01 5.085128447244126816e-50
7.347112429280528545e+01 5.082504853089847357e-50
7.404368658127866354e+01 5.079928421215385449e-50
7.462071086182491797e+01 5.077398628441858294e-50
7.520223190685867110e+01 5.074914963076360475e-50
7.578828475977674373e+01 5.072476924754471419e-50
7.637890473707000183e+01 5.070084024291876704e-50
7.697412743045173045e+01 5.067735783542133004e-50
7.757398870900217958e+01 5.065431735250608209e-50
7.817852472133024833e+01 5.063171422925863969e-50
7.878777189775192369e+01 5.060954400698179321e-50
7.940176695248545968e+01 5.058780233196377042e-50
8.002054688586392217e+01 5.056648495418272762e-50
8.064414898656497144e+01 5.054558772610448737e-50
8.127261083385778306e+01 5.052510660149444354e-50
8.190597029986767552e+01 5.050503763426700237e-50
8.254426555185850134e+01 5.048537697735105201e-50
8.318753505453241814e+01 5.046612088164324713e-50
8.383581757234797749e+01 5.044726569491325538e-50
8.448915217185621884e+01 5.042880786080734003e-50
8.514757822405468346e+01 5.041074391785022384e-50
8.581113540676001605e+01 5.039307049849303495e-50
8.647986370699926795e+01 5.037578432817580952e-50
8.715380342341917697e+01 5.035888222443283828e-50
8.783299516871490198e+01 5.034236109602353721e-50
8.851747987207740209e+01 5.032621794208561388e-50
8.920729878165977311e+01 5.031044985132226575e-50
8.990249346706292499e+01 5.029505400122158763e-50
9.060310582184085604e+01 5.028002765728914930e-50
9.130917806602495546e+01 5.026536817232454725e-50
9.202075274866830057e+01 5.025107298570898069e-50
9.273787275041000555e+01 5.023713962272458080e-50
9.346058128605885429e+01 5.022356569390657557e-50
9.418892190719775215e+01 5.021034889440747614e-50
9.492293850480828610e+01 5.019748700340066013e-50
9.566267531191542162e+01 5.018497788349156103e-50
9.640817690625316061e+01 5.017281948017085641e-50
9.715948821295106086e+01 5.016100982127727515e-50
9.791665450724114805e+01 5.014954701650316327e-50
9.867972141718647094e+01 5.013842925688808527e-50
9.944873492643085910e+01 5.012765481437957818e-50
1.002237413769696843e+02 5.011722204138645153e-50
1.010047874719425067e+02 5.010712937036440081e-50
1.017919202784478472e+02 5.009737531342553073e-50
1.025851872303792192e+02 5.008795846196843636e-50
1.033846361312837132e+02 5.007887748632699060e-50
1.041903151572423241e+02 5.007013113545034350e-50
1.050022728597737967e+02 5.006171823659921608e-50
1.058205581687600016e+02 5.005363769505463326e-50
1.066452203953943325e+02 5.004588849386579751e-50
1.074763092351537921e+02 5.003846969360843622e-50
1.083138747707935323e+02 5.003138043216613768e-50
1.091579674753644582e+02 5.002461992453359350e-50
1.100086382152555871e+02 5.001818746263443558e-50
1.108659382532589319e+02 5.001208241517685604e-50
1.117299192516584156e+02 5.000630422750785023e-50
1.126006332753437249e+02 5.000085242150558450e-50
1.134781327949475127e+02 4.999572659548243690e-50
1.143624706900070578e+02 4.999092642411215676e-50
1.152537002521514893e+02 4.998645165837865503e-50
1.161518751883129568e+02 4.998230212553967425e-50
1.170570496239626834e+02 4.997847772911964790e-50
1.179692781063733946e+02 4.997497844890936807e-50
1.188886156079060470e+02 4.997180434100409111e-50
1.198151175293222082e+02 4.996895553784721731e-50
1.207488397031233518e+02 4.996643224829180315e-50
1.216898383969149506e+02 4.996423475770166062e-50
1.226381703167970159e+02 4.996236342804720548e-50
1.235938926107819071e+02 4.996081869804660888e-50
1.245570628722379070e+02 4.995960108330337863e-50
1.255277391433594403e+02 4.995871117648276785e-50
1.265059799186655596e+02 4.995814964749275105e-50
1.274918441485245921e+02 4.995791724370509986e-50
1.284853912427061289e+02 4.995801479017261317e-50
1.294866810739619325e+02 4.995844318988606723e-50
1.304957739816336186e+02 4.995920342404285469e-50
1.315127307752884178e+02 4.996029655233626710e-50
1.325376127383843823e+02 4.996172371326451868e-50
1.335704816319631050e+02 4.996348612446669002e-50
1.346113996983710308e+02 4.996558508307135779e-50
1.356604296650112076e+02 4.996802196606898248e-50
1.367176347481229470e+02 4.997079823070696200e-50
1.377830786565907033e+02 4.997391541490132146e-50
1.388568255957844144e+02 4.997737513767630104e-50
1.399389402714279811e+02 4.998117909961336339e-50
1.410294878934981853e+02 4.998532908333955067e-50
1.421285341801552420e+02 4.998982695400913772e-50
1.432361453617025404e+02 4.999467465984500289e-50
1.443523881845774781e+02 4.999987423266451157e-50
1.454773299153745256e+02 5.000542778844606921e-50
1.466110383448984180e+02 5.001133752792370531e-50
1.477535817922487809e+02 5.001760573718117312e-50
1.489050291089381517e+02 5.002423478829295740e-50
1.500654496830406970e+02 5.003122713996908999e-50
1.512349134433729603e+02 5.003858533823432025e-50
1.524134908637090291e+02 5.004631201712634315e-50
1.536012529670268520e+02 5.005440989941053068e-50
1.547982713297877240e+02 5.006288179733240812e-50
1.560046180862505310e+02 5.007173061337800208e-50
1.572203659328182255e+02 5.008095934106716675e-50
1.584455881324181519e+02 5.009057106577245317e-50
1.596803585189179557e+02 5.010056896555041767e-50
1.609247515015744341e+02 5.011095631201215654e-50
1.621788420695170316e+02 5.012173647120661227e-50
1.634427057962678873e+02 5.013291290453607915e-50
1.647164188442954185e+02 5.014448916969491616e-50
1.660000579696035743e+02 5.015646892163096369e-50
1.672937005263582364e+02 5.016885591353630158e-50
1.685974244715482087e+02 5.018165399785970452e-50
1.699113083696825299e+02 5.019486712735620619e-50
1.712354313975259004e+02 5.020849935614542772e-50
1.725698733488695211e+02 5.022255484081395615e-50
1.739147146393390528e+02 5.023703784153623923e-50
1.752700363112416539e+02 5.025195272322378649e-50
1.766359200384491714e+02 5.026730395670578170e-50
1.780124481313194451e+02 5.028309611993282645e-50
1.793997035416574590e+02 5.029933389921400376e-50
1.807977698677136971e+02 5.031602209048624557e-50
1.822067313592213509e+02 5.033316560059976673e-50
1.836266729224743983e+02 5.035076944864750145e-50
1.850576801254436248e+02 5.036883876731995942e-50
1.864998392029326340e+02 5.038737880429048668e-50
1.879532370617755248e+02 5.040639492362747496e-50
1.894179612860732789e+02 5.042589260724883577e-50
1.908941001424721833e+02 5.044587745639914991e-50
1.923817425854821010e+02 5.046635519315991852e-50
1.938809782628381413e+02 5.048733166200250624e-50
1.953918975209024325e+02 5.050881283136019888e-50
1.969145914101080166e+02 5.053080479524771049e-50
1.984491516904466835e+02 5.055331377490513206e-50
1.999956708369982152e+02 5.057634612048327127e-50
2.015542420455023489e+02 5.059990831276319543e-50
2.031249592379760713e+02 5.062400696490967350e-50
2.047079170683730354e+02 5.064864882426473689e-50
2.063032109282868873e+02 5.067384077417530089e-50
2.079109369527008937e+02 5.069958983586287998e-50
2.095311920257806548e+02 5.072590317032884494e-50
2.111640737867118389e+02 5.075278808029792823e-50
2.128096806355852948e+02 5.078025201220588369e-50
2.144681117393262753e+02 5.080830255822009589e-50
2.161394670376696752e+02 5.083694745831533973e-50
2.178238472491838138e+02 5.086619460237383914e-50
2.195213538773393793e+02 5.089605203234193850e-50
2.212320892166253827e+02 5.092652794442127129e-50
2.229561563587150204e+02 5.095763069131361680e-50
2.246936591986774658e+02 5.098936878449543989e-50
2.264447024412380358e+02 5.102175089655458887e-50
2.282093916070892590e+02 5.105478586356648528e-50
2.299878330392489829e+02 5.108848268751303437e-50
2.317801339094681907e+02 5.112285053875701809e-50
2.335864022246906018e+02 5.115789875856213335e-50
2.354067468335608453e+02 5.119363686166483799e-50
2.372412774329828551e+02 5.123007453889305753e-50
2.390901045747320666e+02 5.126722165984608119e-50
2.409533396721166127e+02 5.130508827561190858e-50
2.428310950066905889e+02 5.134368462155878514e-50
2.447234837350216878e+02 5.138302112016066535e-50
2.466306198955096249e+02 5.142310838389872582e-50
2.485526184152573421e+02 5.146395721820814387e-50
2.504895951169983448e+02 5.150557862448578063e-50
2.524416667260755673e+02 5.154798380316213013e-50
2.544089508774746662e+02 5.159118415683493261e-50
2.563915661229143552e+02 5.163519129346342655e-50
2.583896319379898614e+02 5.168001702963240261e-50
2.604032687293719732e+02 5.172567339388461614e-50
2.624325978420643537e+02 5.177217263012488179e-50
2.644777415667152241e+02 5.181952720109865123e-50
2.665388231469862035e+02 5.186774979195057222e-50
2.686159667869804935e+02 5.191685331387775627e-50
2.707092976587269959e+02 5.196685090786344545e-50
2.728189419097225255e+02 5.201775594853258320e-50
2.749450266705351851e+02 5.206958204812248091e-50
2.770876800624648695e+02 5.212234306059812106e-50
2.792470312052630561e+02 5.217605308596494910e-50
2.814232102249154082e+02 5.223072647480446939e-50
2.836163482614826989e+02 5.228637783315294445e-50
2.858265774770025587e+02 5.234302202784673491e-50
2.880540310634554544e+02 5.240067419259045158e-50
2.902988432507903553e+02 5.245934973517987302e-50
2.925611493150125284e+02 5.251906434666776067e-50
2.948410855863375559e+02 5.257983401397496038e-50
2.971387894574056077e+02 5.264167503898037726e-50
2.994543993915602869e+02 5.270460407060455248e-50
3.017880549311942673e+02 5.276863816490801366e-50
3.041398967061576855e+02 5.283379491137657153e-50
3.065100664422314480e+02 5.290009273409667658e-50
3.088987069696701724e+02 5.296755172947005425e-50
3.113059622318079391e+02 5.303619653076960081e-50
3.137319772937320295e+02 5.310606972323124591e-50
3.161768983510263524e+02 5.317734482398382111e-50
3.186408727385806401e+02 5.325864159666236305e-50
3.211240489394681958e+02 5.332366391221815952e-50
3.236265765938954928e+02 5.339768603681729084e-50
3.261486065082187338e+02 5.347364921692169357e-50
3.286902906640310107e+02 5.355099109844575546e-50
3.312517822273226216e+02 5.362968072265986059e-50
3.338332355577101112e+02 5.370972783541032699e-50
3.364348062177374459e+02 5.379115020936876159e-50
3.390566509822522789e+02 5.387396815291708368e-50
3.416989278478527012e+02 5.395820312529730760e-50
3.443617960424069793e+02 5.404387729370104044e-50
3.470454160346512253e+02 5.413101336858388153e-50
3.497499495438582926e+02 5.421963453676060157e-50
3.524755595495823854e+02 5.430976443359257734e-50
3.552224103014823982e+02 5.440142713244932563e-50
3.579906673292189225e+02 5.449464714249712805e-50
3.607804974524281647e+02 5.458944941077254960e-50
3.635920687907769207e+02 5.468585932663423623e-50
3.664255507740929261e+02 5.478390272762624750e-50
3.692811141525733660e+02 5.488360590621680464e-50
3.721589310070772285e+02 5.498499561715694723e-50
3.750591747594938852e+02 5.508809908526824713e-50
3.779820201831925033e+02 5.519294401358717592e-50
3.809276434135567797e+02 5.529955859179291506e-50
3.838962219585976641e+02 5.540797150490775526e-50
3.868879347096493007e+02 5.551821194221196283e-50
3.899029619521515997e+02 5.563030960641116158e-50
3.929414853765134694e+02 5.574429472300556205e-50
3.960036880890602902e+02 5.586019804988544161e-50
3.990897546230708599e+02 5.597805088713614427e-50
4.021998709498963649e+02 5.609788508707870353e-50
4.053342244901661502e+02 5.621973306451413563e-50
4.084930041250843828e+02 5.634362780719790537e-50
4.116764002078110138e+02 5.646960288655293009e-50
4.148846045749318137e+02 5.659769246860508380e-50
4.181178105580209490e+02 5.672793132516369648e-50
4.213762129952903024e+02 5.686035484524123713e-50
4.246600082433295711e+02 5.699499904673067820e-50
4.279693941889414077e+02 5.713190058832532921e-50
4.313045702610652938e+02 5.727109678171448816e-50
4.346657374427940113e+02 5.741262560404293688e-50
4.380530982834878273e+02 5.755652571063845810e-50
4.414668569109793452e+02 5.770283644802422919e-50
4.449072190438729422e+02 5.785159786722916781e-50
4.483743920039445356e+02 5.800285073738099849e-50
4.518685847286337207e+02 5.815663655960335792e-50
4.553900077836335072e+02 5.831299758124193110e-50
4.589388733755817498e+02 5.847197681038527291e-50
4.625153953648480751e+02 5.863361803072902747e-50
4.661197892784197165e+02 5.879796581676888399e-50
4.697522723228924519e+02 5.896506554934554280e-50
4.734130633975585738e+02 5.913496343153406674e-50
4.771023831075963244e+02 5.930770650490641771e-50
4.808204537773672200e+02 5.948334266615655310e-50
4.845674994638119415e+02 5.966192068411404282e-50
4.883437459699508736e+02 5.984349021715347108e-50
4.921494208584945795e+02 6.002810183099575829e-50
4.959847534655552863e+02 6.021580701694451283e-50
4.998499749144658608e+02 6.040665821051737949e-50
5.037453181297104834e+02 6.060070881054733303e-50
5.076710178509595153e+02 6.079801319870736967e-50
5.116273106472139034e+02 6.099862675951537035e-50
5.156144349310642383e+02 6.120260590079420056e-50
5.196326309730563935e+02 6.141000807463465747e-50
5.236821409161686915e+02 6.162089179886104593e-50
5.277632087904075888e+02 6.183531667898925153e-50
5.318760805275113626e+02 6.205334343073920299e-50
5.360210039757685081e+02 6.227503390308010232e-50
5.401982289149573262e+02 6.250045110184045131e-50
5.444080070713953319e+02 6.272965921388343468e-50
5.486505921331101945e+02 6.296272363189494778e-50
5.529262397651248193e+02 6.319971097976840165e-50
5.572352076248678259e+02 6.344068913861612171e-50
5.615777553776983950e+02 6.368572727345475127e-50
5.659541447125526474e+02 6.393489586053903140e-50
5.703646393577165554e+02 6.418826671541035021e-50
5.748095050967175439e+02 6.444591302166983240e-50
5.792890097843385320e+02 6.470790936052455796e-50
5.838034233627633967e+02 6.497433174115868929e-50
5.883530178778419213e+02 6.524525763202006604e-50
5.929380674954823007e+02 6.552076599317175635e-50
5.975588485181762053e+02 6.580093731002266839e-50
6.022156394016473087e+02 6.608585362904283050e-50
6.069087207716299872e+02 6.637559859708402447e-50
6.116383754407836477e+02 6.667025750846756533e-50
6.164048884257337022e+02 6.696991737324931472e-50
6.212085469642455564e+02 6.727466705782050507e-50
6.260496405325370688e+02 6.758459775950359353e-50
6.309284608627218631e+02 6.789980599763896243e-50
6.358453019603869052e+02 6.822046283410624209e-50
6.408004601223141208e+02 6.854651659213158423e-50
6.457942339543335493e+02 6.887798650950968405e-50
6.508269243893156499e+02 6.921522371654403336e-50
6.558988347053104917e+02 6.955822759732680249e-50
6.610102705438212070e+02 6.990709695121943489e-50
6.661615399282209182e+02 7.026193661306993432e-50
6.713529532823184809e+02 7.062285417350974064e-50
6.765848234490631512e+02 7.098995956118118589e-50
6.818574657093947735e+02 7.136336498599380458e-50
6.871711978012478994e+02 7.174318495862479242e-50
6.925263399386961964e+02 7.212953633223207642e-50
6.979232148312477193e+02 7.252253835263237970e-50
7.033621477032955909e+02 7.292231271273833332e-50
7.088434663137147709e+02 7.332898360972749149e-50
7.143675009756112786e+02 7.374267780441952201e-50
7.199345845762311455e+02 7.416352468262954779e-50
7.255450525970192075e+02 7.459165631841560735e-50
7.311992431338331926e+02 7.502720753924895815e-50
7.368974969173224281e+02 7.547031599310042415e-50
7.426401573334585464e+02 7.592112221750913309e-50
7.484275704442266033e+02 7.637976971069620014e-50
7.542600850084832018e+02 7.684640500474204537e-50
7.601380525029715045e+02 7.732117774096699632e-50
7.660618271434990447e+02 7.780424074752410137e-50
7.720317659062886833e+02 7.829575011930085701e-50
7.780482285494875896e+02 7.879586530023843059e-50
7.841115776348444797e+02 7.930474916808003925e-50
7.902221785495635231e+02 7.982256812173692453e-50
7.963803995283201402e+02 8.034949217124896240e-50
8.025866116754493760e+02 8.088569503053220337e-50
8.088411889873140126e+02 8.143135421294771679e-50
8.151445083748395746e+02 8.198665112982253110e-50
8.214969496862253209e+02 8.255177119201499562e-50
8.278988957298396372e+02 8.312690391465573548e-50
8.343507322972856173e+02 8.371224302514895731e-50
8.408528481866477478e+02 8.430798657458380313e-50
8.474056352259257210e+02 8.491433705265861807e-50
8.540094882966449177e+02 8.553150150627428644e-50
8.606648053576492430e+02 8.615969166190141031e-50
8.673719874690885945e+02 8.679912405190172737e-50
8.741314388165844775e+02 8.745002014492738132e-50
8.809435667355842270e+02 8.811260648058982687e-50
8.878087817359131577e+02 8.878711480856359215e-50
8.947274975265096373e+02 8.947378223232541648e-50
9.017001310403536536e+02 9.017285135786946445e-50
9.087271024595964946e+02 9.088457044774294453e-50
9.158088352408796027e+02 9.160919358134781498e-50
9.229457561408497668e+02 9.234698082368917699e-50
9.301382952418814511e+02 9.309819841031773190e-50
9.373868859779920513e+02 9.386311898401624590e-50
9.446919651609578068e+02 9.464202213914653072e-50
9.520539730066429911e+02 9.543519997660961712e-50
9.594733531615247557e+02 9.624302353512807870e-50
9.669505527294256808e+02 9.706551238338746344e-50
9.744860222984621032e+02 9.790326582873826217e-50
9.820802159681948069e+02 9.875650248330881465e-50
9.897335913769907165e+02 9.962554287685671306e-50
9.974466097296069620e+02 1.005107168964320212e-49
1.005219735824979466e+03 1.014123628091580690e-49
1.013053438084235040e+03 1.023308273663951907e-49
1.020948188578914824e+03 1.032664660291715047e-49
1.028904463059428053e+03 1.042196432242424631e-49
1.036922740983718768e+03 1.051907326154550349e-49
1.045003505546155566e+03 1.061801173870002642e-49
1.053147243706655672e+03 1.071881905378613109e-49
1.061354446220027512e+03 1.082153551875176334e-49
1.069625607665539974e+03 1.092620248932289207e-49
1.077961226476733827e+03 1.103286239793342217e-49
1.086361804971455058e+03 1.114155878790637649e-49
1.094827849382121485e+03 1.125233634893781455e-49
1.103359869886236311e+03 1.136524095394702677e-49
1.111958380637128130e+03 1.148031969734430676e-49
1.120623899794932186e+03 1.159762093478849088e-49
1.129356949557821736e+03 1.171719432449911593e-49
1.138158056193473385e+03 1.183909087019118324e-49
1.147027750070777074e+03 1.196336296571247806e-49
1.155966565691804135e+03 1.209006444145802440e-49
1.164975041724014091e+03 1.221925061264730426e-49
1.174053721032711564e+03 1.235097832954899514e-49
1.183203150713767400e+03 1.248530602975276766e-49
1.192423882126584203e+03 1.262229379257655094e-49
1.201716470927318369e+03 1.276200339572454001e-49
1.211081477102371991e+03 1.290449837430693509e-49
1.220519465002135348e+03 1.304984408235821547e-49
1.230031003374991315e+03 1.319810775704927935e-49
1.239616665401596720e+03 1.334935858595602084e-49
1.249277028729419499e+03 1.350366777868202164e-49
1.259012675507545055e+03 1.366110865102718194e-49
1.268824192421763883e+03 1.382175685727711802e-49
1.278712170729924765e+03 1.398569599604189440e-49
1.288677206297558541e+03 1.415298712090257677e-49
1.298719899633795194e+03 1.432373198928796296e-49
1.308840855927546954e+03 1.449800922506420585e-49
1.319040685083974950e+03 1.467590631768492208e-49
1.329320001761249159e+03 1.485751351255147573e-49
1.339679425407587132e+03 1.504292386215419379e-49
1.350119580298576466e+03 1.523223332766659059e-49
1.360641095574804922e+03 1.542554089003170370e-49
1.371244605279767711e+03 1.562294866709614732e-49
1.381930748398072865e+03 1.582456203645873324e-49
1.392700168893955606e+03 1.603048976417225091e-49
1.403553515750080123e+03 1.624084413958711935e-49
1.414491443006643976e+03 1.645574111664375447e-49
1.425514609800801281e+03 1.667530046198342258e-49
1.436623680406377389e+03 1.689964591024665368e-49
1.447819324273896427e+03 1.712890532697023222e-49
1.459102216070931036e+03 1.736321087952980324e-49
1.470473035722754730e+03 1.760269921660541345e-49
1.481932468453311458e+03 1.784751165680559183e-49
1.493481204826516205e+03 1.809779438775276761e-49
1.505119940787866653e+03 1.835369868612250816e-49
1.516849377706375208e+03 1.861538973001089315e-49
1.528670222416845718e+03 1.888300363419824391e-49
1.540583187262463071e+03 1.915673419168627983e-49
1.552588990137714973e+03 1.943674666746445512e-49
1.564688354531663890e+03 1.972322119503056984e-49
1.576882009571540493e+03 2.001634451003895287e-49
1.589170690066676798e+03 2.031631044767819022e-49
1.601555136552796966e+03 2.062331945505095473e-49
1.614036095336638937e+03 2.093757912329398859e-49
1.626614318540922113e+03 2.125930683446799227e-49
1.639290564149681586e+03 2.158872650114343582e-49
1.652065596053941363e+03 2.192607109418429036e-49
1.664940184097741849e+03 2.227158262855729703e-49
1.677915104124541813e+03 2.262551258365333406e-49
1.690991138023968006e+03 2.298812236018290769e-49
1.704169073778926304e+03 2.335968376498591546e-49
1.717449705513098706e+03 2.374047952438067270e-49
1.730833833538792760e+03 2.413080382770286975e-49
1.744322264405163878e+03 2.453096290300675022e-49
1.757915810946830561e+03 2.494127562709518620e-49
1.771615292332851595e+03 2.536207417218233570e-49
1.785421534116085240e+03 2.579370469172507658e-49
1.799335368282948593e+03 2.623652804808978868e-49
1.813357633303549846e+03 2.669092058497579569e-49
1.827489174182209808e+03 2.715727494771063581e-49
1.841730842508394517e+03 2.763600095480168170e-49
1.856083496508025974e+03 2.812752652439280424e-49
1.870548001095203745e+03 2.863229865978583791e-49
1.885125227924318551e+03 2.915078449978662723e-49
1.899816055442591278e+03 2.968347245830256187e-49
1.914621368943003745e+03 3.023089752923415365e-49
1.929542060617641937e+03 3.079352151198091293e-49
1.944579029611473061e+03 3.137197666603623255e-49
1.959733182076522326e+03 3.196682490584061336e-49
1.975005431226475366e+03 3.257868026093367942e-49
1.990396697391719727e+03 3.320818645212022868e-49
2.005907908074800844e+03 3.385606284460220386e-49
2.021539998006308224e+03 3.452501254014202336e-49
2.037293909201216138e+03 3.521375646152847674e-49
2.053170591015644732e+03 3.592307575869164154e-49
2.069171000204064057e+03 3.665379123588904974e-49
2.085296100976960588e+03 3.740676578103100526e-49
2.101546865058938693e+03 3.818290696301128176e-49
2.117924271747268904e+03 3.898316980917462012e-49
2.134429307970916398e+03 3.980855977575480976e-49
2.151062968350008305e+03 4.066013592495157773e-49
2.167826255255764409e+03 4.153901432311509248e-49
2.184720178870914424e+03 4.244637167546171004e-49
2.201745757250567294e+03 4.338344921488644895e-49
2.218904016383554790e+03 4.435155688658927667e-49
2.236195990254269873e+03 4.535208449030927627e-49
2.253622720904973448e+03 4.638647235500761199e-49
2.271185258498579060e+03 4.745628490253340395e-49
2.288884661381954174e+03 4.856314746132106798e-49
2.306721996149688039e+03 4.970878625159610391e-49
2.324698337708362033e+03 5.089502773310923263e-49
2.342814769341337978e+03 5.212380510390147243e-49
2.361072382774031212e+03 5.339716521244346539e-49
2.379472278239693878e+03 5.471727587750707632e-49
2.398015564545729376e+03 5.608643361805591076e-49
2.416703359140505199e+03 5.750707178965978310e-49
2.435536788180683743e+03 5.898176911519251228e-49
2.454516986599102438e+03 6.051325858583350809e-49
2.473645098173158203e+03 6.210443669316348766e-49
2.492922275593724407e+03 6.375837293362032323e-49
2.512349680534632625e+03 6.547831950216487194e-49
2.531928483722665987e+03 6.726772107128708885e-49
2.551659865008103225e+03 6.913022846290352323e-49
2.571545013435832971e+03 7.106968779166174127e-49
2.591585127317000570e+03 7.309018986706412348e-49
2.611781414301211498e+03 7.519603762020908118e-49
2.632135091449321862e+03 7.739177267052825002e-49
2.652647385306774140e+03 7.968217599870267550e-49
2.673319531977500901e+03 8.207226978887800859e-49
2.694152777198432432e+03 8.456731567619699532e-49
2.715148376414555969e+03 8.717280820616705973e-49
2.736307594854566105e+03 8.989446204565819725e-49
2.757631707607123190e+03 9.273819113126242632e-49
2.779121999697685624e+03 9.571007751018095163e-49
2.800779766165938327e+03 9.881632710973485847e-49
2.822606312143850573e+03 1.020632090526550912e-48
2.844602952934317727e+03 1.054569744106723447e-48
2.866771014090414610e+03 1.090037500300340930e-48
2.889111831495292336e+03 1.127093969879068440e-48
2.911626751442673140e+03 1.165793401945321757e-48
2.934317130717970031e+03 1.206183388037010376e-48
2.957184336680067190e+03 1.248302090648300208e-48
2.980229747343711097e+03 1.292174775179322037e-48
3.003454751462540571e+03 1.337809560886155137e-48
3.026860748612797124e+03 1.385192269187702938e-48
3.050449149277652850e+03 1.434280253464088411e-48
3.074221374932201797e+03 1.484995096884032271e-48
3.098178858129137552e+03 1.537214155989427336e-48
3.122323042585072017e+03 1.590760879243361156e-48
3.146655383267527668e+03 1.645394077918509818e-48
3.171177346482633311e+03 1.700796364964917220e-48
3.195890409963478305e+03 1.756562284456029666e-48
3.220796062959153005e+03 1.812186635458453005e-48
3.245895806324512705e+03 1.867054870961442858e-48
3.271191152610610516e+03 1.920435774847884499e-48
3.296683626155838283e+03 1.971479630676693611e-48
3.322374763177804653e+03 2.019223334391317194e-48
3.348266111865900257e+03 2.062605088172848666e-48
3.374359232474582768e+03 2.100490825124610795e-48
3.400655697417423198e+03 2.131713868995341606e-48
3.427157091361845232e+03 2.155128044950144948e-48
3.453865011324629904e+03 2.169672549663156033e-48
3.480781066768138317e+03 2.174444526774385457e-48
3.507906879697322438e+03 2.168772908298033682e-48
3.535244084757458495e+03 2.152284803248606632e-48
3.562794329332642974e+03 2.124956268038666822e-48
3.590559273645089434e+03 2.087137656941784923e-48
3.618540590855162463e+03 2.039549757611146071e-48
3.646739967162196990e+03 1.983248549216646492e-48
3.675159101906131582e+03 1.919562434150981174e-48
3.703799707669903000e+03 1.850009595160680397e-48
3.732663510382638378e+03 1.776205759499328739e-48
3.761752249423684134e+03 1.699773160563756853e-48
3.791067677727412502e+03 1.622260015057421856e-48
3.820611561888846154e+03 1.545076989107157140e-48
3.850385682270137295e+03 1.469453714912276957e-48
3.880391833107845287e+03 1.396415404249502139e-48
3.910631822621046013e+03 1.326777043053656640e-48
3.941107473120324357e+03 1.261151541036167732e-48
3.971820621117577048e+03 1.199967580243184135e-48
4.002773117436670418e+03 1.143493216277616525e-48
4.033966827324999485e+03 1.091861926698690146e-48
4.065403630565878302e+03 1.045098617572675467e-48
4.097085421591806153e+03 1.003143909377091512e-48
4.129014109598654613e+03 9.658757206571728033e-49
4.161191618660706808e+03 9.331277073450965486e-49
4.193619887846588426e+03 9.047044950956259794e-49
4.226300871336150522e+03 8.803939167056336839e-49
4.259236538538216337e+03 8.599765245132079231e-49
4.292428874209245805e+03 8.432328202734217789e-49
4.325879878572969574e+03 8.299485541554205248e-49
4.359591567440910694e+03 8.199184714339337031e-49
4.393565972333847640e+03 8.129488303991882678e-49
4.427805140604265034e+03 8.088589698409945586e-49
4.462311135559713875e+03 8.074821605580791176e-49
4.497086036587142189e+03 8.086659061406026084e-49
4.532131939278221580e+03 8.122719110260556418e-49
4.567450955555624205e+03 8.181757188097866298e-49
4.603045213800271085e+03 8.262662233404006590e-49
4.638916858979625431e+03 8.364450549790297812e-49
4.675068052776933655e+03 8.486259141840580626e-49
4.711500973721477749e+03 8.627338858174600382e-49
4.748217817319889036e+03 8.787047625259655972e-49
4.785220796188435088e+03 8.964844052110110883e-49
4.822512140186340730e+03 9.160280809971808821e-49
4.860094096550195900e+03 9.373000061336319500e-49
4.897968930029359399e+03 9.602727334708114065e-49
4.936138923022424024e+03 9.849267526497687639e-49
4.974606375714784917e+03 1.011250085907436118e-48
5.013373606217240194e+03 1.039237952234267493e-48
5.052442950705666590e+03 1.068892489611629057e-48
5.091816763561832886e+03 1.100222535183925427e-48
5.131497417515263805e+03 1.133243461059372717e-48
5.171487303786206212e+03 1.167977071353841111e-48
5.211788832229764921e+03 1.204451552208866738e-48
5.252404431481100801e+03 1.242701482546163058e-48
5.293336549101775745e+03 1.282767904680845225e-48
5.334587651727275443e+03 1.324698456854811434e-48
5.376160225215634455e+03 1.368547571510500989e-48
5.418056774797226353e+03 1.414376744568667362e-48
5.460279825225763489e+03 1.462254874933974066e-48
5.502831920930424531e+03 1.512258701425324809e-48
5.545715626169172538e+03 1.564473313293264079e-48
5.588933525183312668e+03 1.618992778119347826e-48
5.632488222353206766e+03 1.675920882150087286e-48
5.676382342355199398e+03 1.735372005950405901e-48
5.720618530319820820e+03 1.797472155569121638e-48
5.765199451991168644e+03 1.862360174153376203e-48
5.810127793887530970e+03 1.930189165635728214e-48
5.855406263463321011e+03 2.001128169214870817e-48
5.901037589272206787e+03 2.075364127742867443e-48
5.947024521131527763e+03 2.153104212090225416e-48
5.993369830288033882e+03 2.234578568899756843e-48
6.040076309584871524e+03 2.320043580619012825e-48
6.087146773629861855e+03 2.409785746122255350e-48
6.134584058965156146e+03 2.504126319211454178e-48
6.182391024238146201e+03 2.603426875365333952e-48
6.230570550373715378e+03 2.708096020532715058e-48
6.279125540747884770e+03 2.818597517607285755e-48
6.328058921362751789e+03 2.935460175360431685e-48
6.377373641022825723e+03 3.059289945825253394e-48
6.427072671512701163e+03 3.190784785612803166e-48
6.477159007776187536e+03 3.330753055026052410e-48
6.527635668096761037e+03 3.480136335302878278e-48
6.578505694279438103e+03 3.640037960193757648e-48
6.629772151834115903e+03 3.811758816718661957e-48
6.681438130160286164e+03 3.996842495974941284e-48
6.733506742733188730e+03 4.197132460668819463e-48
6.785981127291471239e+03 4.414844649444714496e-48
6.838864446026256701e+03 4.652659804740638928e-48
6.892159885771680820e+03 4.913840744859865899e-48
6.945870658196978184e+03 5.202380517984108472e-48
7.000000000000001819e+03 5.523187272498681312e-48
