# m1 m2 iota ra dec psi z seglen f_sample f_low f_ref rho_CE rho_ET1 rho_ET2 rho_ET3 rho_net 
2.500000000000000000e+00 2.500000000000000000e+00 0.000000000000000000e+00 1.722145449999999869e+02 -4.728412900000000008e+01 1.255477400000000046e+02 1.000000000000000000e+01 1.280000000000000000e+02 2.048000000000000000e+03 4.000000000000000000e+00 4.000000000000000000e+00 1.175739910518419862e+01 2.105550341799787617e+00 1.231601522330605603e+00 2.259269812541497835e+00 1.221846599999999938e+01
5.000000000000000000e+00 5.000000000000000000e+00 0.000000000000000000e+00 3.514936809999999809e+02 4.702019500000000107e+01 4.412285700000000332e+01 4.000000000000000000e+01 8.000000000000000000e+00 2.560000000000000000e+02 4.000000000000000000e+00 4.000000000000000000e+00 1.188676539715197222e+01 1.864450272034331002e+00 1.069764145013516243e+00 2.015627178469802772e+00 1.224657200000000046e+01
5.000000000000000000e+00 5.000000000000000000e+00 0.000000000000000000e+00 3.514936809999999809e+02 4.702019500000000107e+01 4.412285700000000332e+01 3.000000000000000000e+01 8.000000000000000000e+00 5.120000000000000000e+02 4.000000000000000000e+00 4.000000000000000000e+00 1.292578202806440046e+01 2.132236938827791306e+00 1.223411887163138978e+00 2.305127033583554752e+00 1.335786700000000060e+01
5.000000000000000000e+00 5.000000000000000000e+00 0.000000000000000000e+00 1.722145449999999869e+02 -4.728412900000000008e+01 1.255477400000000046e+02 2.000000000000000000e+01 1.600000000000000000e+01 5.120000000000000000e+02 4.000000000000000000e+00 4.000000000000000000e+00 1.478456900439217314e+01 2.626084378956714982e+00 1.536077981458804365e+00 2.817806368615361823e+00 1.535510900000000056e+01
5.000000000000000000e+00 5.000000000000000000e+00 3.000000000000000000e+01 3.523624970000000189e+02 4.609428900000000340e+01 9.144787700000000541e+01 2.000000000000000000e+01 1.600000000000000000e+01 5.120000000000000000e+02 4.000000000000000000e+00 4.000000000000000000e+00 1.294777630504800392e+01 2.286201042564886432e+00 1.265396048228978998e+00 2.391681963730450722e+00 1.342359800000000014e+01
5.000000000000000000e+00 5.000000000000000000e+00 0.000000000000000000e+00 1.722145449999999869e+02 -4.728412900000000008e+01 1.255477400000000046e+02 1.000000000000000000e+01 3.200000000000000000e+01 1.024000000000000000e+03 4.000000000000000000e+00 4.000000000000000000e+00 1.973799324380939524e+01 3.592790438661357388e+00 2.101534257256398419e+00 3.855088534200987294e+00 2.053715400000000102e+01
5.000000000000000000e+00 5.000000000000000000e+00 3.000000000000000000e+01 3.523624970000000189e+02 4.609428900000000340e+01 9.144787700000000541e+01 1.000000000000000000e+01 3.200000000000000000e+01 1.024000000000000000e+03 4.000000000000000000e+00 4.000000000000000000e+00 1.728580124016267305e+01 3.127790299658203654e+00 1.731209727923169739e+00 3.272100531294930281e+00 1.795231800000000177e+01
5.000000000000000000e+00 5.000000000000000000e+00 6.000000000000000000e+01 3.523624970000000189e+02 4.609428900000000340e+01 9.144787700000000541e+01 1.000000000000000000e+01 3.200000000000000000e+01 1.024000000000000000e+03 4.000000000000000000e+00 4.000000000000000000e+00 1.233935428363922959e+01 1.912783179453438898e+00 1.216803086687547442e+00 1.890208785171795469e+00 1.268746999999999936e+01
6.666667000000000343e+00 3.333333000000000101e+00 0.000000000000000000e+00 1.722145449999999869e+02 -4.728412900000000008e+01 1.255477400000000046e+02 2.000000000000000000e+01 1.600000000000000000e+01 5.120000000000000000e+02 4.000000000000000000e+00 4.000000000000000000e+00 1.333519119169657863e+01 2.378681849171876195e+00 1.391364589305474686e+00 2.552341774398390939e+00 1.385408900000000010e+01
6.666667000000000343e+00 3.333333000000000101e+00 3.000000000000000000e+01 3.523624970000000189e+02 4.609428900000000340e+01 9.144787700000000541e+01 2.000000000000000000e+01 1.600000000000000000e+01 5.120000000000000000e+02 4.000000000000000000e+00 4.000000000000000000e+00 1.167846505933584922e+01 2.070818808064107230e+00 1.146183510345500700e+00 2.166362406975478549e+00 1.211122199999999971e+01
6.666667000000000343e+00 3.333333000000000101e+00 0.000000000000000000e+00 1.722145449999999869e+02 -4.728412900000000008e+01 1.255477400000000046e+02 1.000000000000000000e+01 3.200000000000000000e+01 1.024000000000000000e+03 4.000000000000000000e+00 4.000000000000000000e+00 1.815355135765639361e+01 3.298083176543240569e+00 1.929150863964408158e+00 3.538865641011418095e+00 1.888581399999999988e+01
6.666667000000000343e+00 3.333333000000000101e+00 3.000000000000000000e+01 3.523624970000000189e+02 4.609428900000000340e+01 9.144787700000000541e+01 1.000000000000000000e+01 3.200000000000000000e+01 1.024000000000000000e+03 4.000000000000000000e+00 4.000000000000000000e+00 1.589820589638478943e+01 2.871225790419718482e+00 1.589203093308938719e+00 3.003698628813677107e+00 1.650892699999999991e+01
8.333332999999999657e+00 1.666666999999999899e+00 0.000000000000000000e+00 1.722145449999999869e+02 -4.728412900000000008e+01 1.255477400000000046e+02 1.000000000000000000e+01 6.400000000000000000e+01 1.024000000000000000e+03 4.000000000000000000e+00 4.000000000000000000e+00 1.320383634624475100e+01 2.399311365970921095e+00 1.403431431779034844e+00 2.574477385989402123e+00 1.373664999999999914e+01
8.333332999999999657e+00 1.666666999999999899e+00 3.000000000000000000e+01 3.523624970000000189e+02 4.609428900000000340e+01 9.144787700000000541e+01 1.000000000000000000e+01 6.400000000000000000e+01 1.024000000000000000e+03 4.000000000000000000e+00 4.000000000000000000e+00 1.156342936536403876e+01 2.088778331067828731e+00 1.156123978840559507e+00 2.185150547845633451e+00 1.200780600000000042e+01
1.000000000000000000e+01 1.000000000000000000e+01 0.000000000000000000e+00 3.514936809999999809e+02 4.702019500000000107e+01 4.412285700000000332e+01 4.000000000000000000e+01 4.000000000000000000e+00 2.560000000000000000e+02 4.000000000000000000e+00 4.000000000000000000e+00 1.922837513857485803e+01 3.113787876369821905e+00 1.786595585455700075e+00 3.366265952887379953e+00 1.984816800000000114e+01
1.000000000000000000e+01 1.000000000000000000e+01 3.000000000000000000e+01 3.523624970000000189e+02 4.609428900000000340e+01 9.144787700000000541e+01 4.000000000000000000e+01 4.000000000000000000e+00 2.560000000000000000e+02 4.000000000000000000e+00 4.000000000000000000e+00 1.682783699577828784e+01 2.740439285248455814e+00 1.516813691097956829e+00 2.866877885714671059e+00 1.735528199999999899e+01
1.000000000000000000e+01 1.000000000000000000e+01 6.000000000000000000e+01 3.523624970000000189e+02 4.609428900000000340e+01 9.144787700000000541e+01 4.000000000000000000e+01 4.000000000000000000e+00 2.560000000000000000e+02 4.000000000000000000e+00 4.000000000000000000e+00 1.201243955274620490e+01 1.675900769213801711e+00 1.066112066890970933e+00 1.656122027353497117e+00 1.228766399999999948e+01
1.000000000000000000e+01 1.000000000000000000e+01 0.000000000000000000e+00 3.514936809999999809e+02 4.702019500000000107e+01 4.412285700000000332e+01 3.000000000000000000e+01 4.000000000000000000e+00 2.560000000000000000e+02 4.000000000000000000e+00 4.000000000000000000e+00 2.227714266186073644e+01 3.475120104440958091e+00 1.993916889663287062e+00 3.756896408567252266e+00 2.294422600000000045e+01
1.000000000000000000e+01 1.000000000000000000e+01 3.000000000000000000e+01 3.523624970000000189e+02 4.609428900000000340e+01 9.144787700000000541e+01 3.000000000000000000e+01 4.000000000000000000e+00 2.560000000000000000e+02 4.000000000000000000e+00 4.000000000000000000e+00 1.949598563289083941e+01 3.058447149672066434e+00 1.692828786645247385e+00 3.199558021672050501e+00 2.006365900000000124e+01
1.000000000000000000e+01 1.000000000000000000e+01 6.000000000000000000e+01 3.523624970000000189e+02 4.609428900000000340e+01 9.144787700000000541e+01 3.000000000000000000e+01 4.000000000000000000e+00 2.560000000000000000e+02 4.000000000000000000e+00 4.000000000000000000e+00 1.391707971708209435e+01 1.870376752488595695e+00 1.189826547066911822e+00 1.848302832809961549e+00 1.421321000000000012e+01
1.000000000000000000e+01 1.000000000000000000e+01 0.000000000000000000e+00 3.514936809999999809e+02 4.702019500000000107e+01 4.412285700000000332e+01 2.000000000000000000e+01 8.000000000000000000e+00 2.560000000000000000e+02 4.000000000000000000e+00 4.000000000000000000e+00 2.578698254344002549e+01 4.032246864357886373e+00 2.313579066191269629e+00 4.359197181071150062e+00 2.656280699999999939e+01
1.000000000000000000e+01 1.000000000000000000e+01 3.000000000000000000e+01 3.523624970000000189e+02 4.609428900000000340e+01 9.144787700000000541e+01 2.000000000000000000e+01 8.000000000000000000e+00 2.560000000000000000e+02 4.000000000000000000e+00 4.000000000000000000e+00 2.256764472955623191e+01 3.548773440465999851e+00 1.964220907968631469e+00 3.712507024931644306e+00 2.322785500000000170e+01
1.000000000000000000e+01 1.000000000000000000e+01 6.000000000000000000e+01 3.523624970000000189e+02 4.609428900000000340e+01 9.144787700000000541e+01 2.000000000000000000e+01 8.000000000000000000e+00 2.560000000000000000e+02 4.000000000000000000e+00 4.000000000000000000e+00 1.610976314006705223e+01 2.170233134029558197e+00 1.380577999997535832e+00 2.144620352101672012e+00 1.645417199999999980e+01
1.000000000000000000e+01 1.000000000000000000e+01 9.000000000000000000e+01 3.448496489999999994e+02 4.651803499999999758e+01 1.779855619999999874e+02 2.000000000000000000e+01 8.000000000000000000e+00 2.560000000000000000e+02 4.000000000000000000e+00 4.000000000000000000e+00 1.290302994294647476e+01 9.651659239428803660e-01 7.511437568444354618e-01 2.140215601206402196e-01 1.296262899999999973e+01
1.000000000000000000e+01 1.000000000000000000e+01 0.000000000000000000e+00 1.722145449999999869e+02 -4.728412900000000008e+01 1.255477400000000046e+02 1.000000000000000000e+01 1.600000000000000000e+01 5.120000000000000000e+02 4.000000000000000000e+00 4.000000000000000000e+00 3.327593339177223442e+01 5.878952832774073656e+00 3.438781355550634800e+00 6.308156305153192811e+00 3.454660499999999956e+01
1.000000000000000000e+01 1.000000000000000000e+01 3.000000000000000000e+01 3.523624970000000189e+02 4.609428900000000340e+01 9.144787700000000541e+01 1.000000000000000000e+01 1.600000000000000000e+01 5.120000000000000000e+02 4.000000000000000000e+00 4.000000000000000000e+00 2.914182630351606562e+01 5.118064066478122953e+00 2.832812129697182435e+00 5.354201703661081169e+00 3.020153799999999933e+01
1.000000000000000000e+01 1.000000000000000000e+01 6.000000000000000000e+01 3.523624970000000189e+02 4.609428900000000340e+01 9.144787700000000541e+01 1.000000000000000000e+01 1.600000000000000000e+01 5.120000000000000000e+02 4.000000000000000000e+00 4.000000000000000000e+00 2.080269894552931120e+01 3.129924297928226462e+00 1.991078543416336055e+00 3.092985377755728127e+00 2.135602199999999939e+01
1.000000000000000000e+01 1.000000000000000000e+01 9.000000000000000000e+01 3.448496489999999994e+02 4.651803499999999758e+01 1.779855619999999874e+02 1.000000000000000000e+01 1.600000000000000000e+01 5.120000000000000000e+02 4.000000000000000000e+00 4.000000000000000000e+00 1.666181216039583290e+01 1.391968553752632731e+00 1.083304396619939380e+00 3.086632817453680566e-01 1.675775600000000054e+01
1.333333299999999966e+01 6.666667000000000343e+00 0.000000000000000000e+00 1.722145449999999869e+02 -4.728412900000000008e+01 1.255477400000000046e+02 4.000000000000000000e+01 4.000000000000000000e+00 2.560000000000000000e+02 4.000000000000000000e+00 4.000000000000000000e+00 1.628936593090320528e+01 2.757778148901349535e+00 1.613109740959091543e+00 2.959114677910580582e+00 1.686141399999999990e+01
1.333333299999999966e+01 6.666667000000000343e+00 3.000000000000000000e+01 3.523624970000000189e+02 4.609428900000000340e+01 9.144787700000000541e+01 4.000000000000000000e+01 4.000000000000000000e+00 2.560000000000000000e+02 4.000000000000000000e+00 4.000000000000000000e+00 1.426562155188613445e+01 2.400850227701251338e+00 1.328853558353052300e+00 2.511620841870147558e+00 1.474266399999999955e+01
1.333333299999999966e+01 6.666667000000000343e+00 0.000000000000000000e+00 3.514936809999999809e+02 4.702019500000000107e+01 4.412285700000000332e+01 3.000000000000000000e+01 4.000000000000000000e+00 2.560000000000000000e+02 4.000000000000000000e+00 4.000000000000000000e+00 1.923975937591946916e+01 3.075300723779006429e+00 1.764512842621054789e+00 3.324658111719635656e+00 1.984421000000000035e+01
1.333333299999999966e+01 6.666667000000000343e+00 3.000000000000000000e+01 3.523624970000000189e+02 4.609428900000000340e+01 9.144787700000000541e+01 3.000000000000000000e+01 4.000000000000000000e+00 2.560000000000000000e+02 4.000000000000000000e+00 4.000000000000000000e+00 1.683779998479716156e+01 2.706566809304401744e+00 1.498065516110139717e+00 2.831442598846199754e+00 1.735218400000000116e+01
1.333333299999999966e+01 6.666667000000000343e+00 6.000000000000000000e+01 3.523624970000000189e+02 4.609428900000000340e+01 9.144787700000000541e+01 3.000000000000000000e+01 4.000000000000000000e+00 2.560000000000000000e+02 4.000000000000000000e+00 4.000000000000000000e+00 1.201955156621436061e+01 1.655186240417127808e+00 1.052934670283858898e+00 1.635651968471363293e+00 1.228793300000000066e+01
1.333333299999999966e+01 6.666667000000000343e+00 0.000000000000000000e+00 3.514936809999999809e+02 4.702019500000000107e+01 4.412285700000000332e+01 2.000000000000000000e+01 8.000000000000000000e+00 2.560000000000000000e+02 4.000000000000000000e+00 4.000000000000000000e+00 2.267009087959401015e+01 3.611574002757532487e+00 2.072209934029183742e+00 3.904414521643521763e+00 2.337765999999999877e+01
1.333333299999999966e+01 6.666667000000000343e+00 3.000000000000000000e+01 3.523624970000000189e+02 4.609428900000000340e+01 9.144787700000000541e+01 2.000000000000000000e+01 8.000000000000000000e+00 2.560000000000000000e+02 4.000000000000000000e+00 4.000000000000000000e+00 1.983987680976577295e+01 3.178539987854735571e+00 1.759299320088125729e+00 3.325191712544859346e+00 2.044201199999999830e+01
1.333333299999999966e+01 6.666667000000000343e+00 6.000000000000000000e+01 3.523624970000000189e+02 4.609428900000000340e+01 9.144787700000000541e+01 2.000000000000000000e+01 8.000000000000000000e+00 2.560000000000000000e+02 4.000000000000000000e+00 4.000000000000000000e+00 1.416256414719448742e+01 1.943818875790063849e+00 1.236546218844686962e+00 1.920878202646584709e+00 1.447672200000000053e+01
1.333333299999999966e+01 6.666667000000000343e+00 0.000000000000000000e+00 1.722145449999999869e+02 -4.728412900000000008e+01 1.255477400000000046e+02 1.000000000000000000e+01 1.600000000000000000e+01 5.120000000000000000e+02 4.000000000000000000e+00 4.000000000000000000e+00 2.996494483186047475e+01 5.319351298227307012e+00 3.111453108790589006e+00 5.707700059128358205e+00 3.111996800000000007e+01
1.333333299999999966e+01 6.666667000000000343e+00 3.000000000000000000e+01 3.523624970000000189e+02 4.609428900000000340e+01 9.144787700000000541e+01 1.000000000000000000e+01 1.600000000000000000e+01 5.120000000000000000e+02 4.000000000000000000e+00 4.000000000000000000e+00 2.624218552199753063e+01 4.630889464643741071e+00 2.563164445840325545e+00 4.844549802230900148e+00 2.720545699999999911e+01
1.333333299999999966e+01 6.666667000000000343e+00 6.000000000000000000e+01 3.523624970000000189e+02 4.609428900000000340e+01 9.144787700000000541e+01 1.000000000000000000e+01 1.600000000000000000e+01 5.120000000000000000e+02 4.000000000000000000e+00 4.000000000000000000e+00 1.873280965307849399e+01 2.831995314662448582e+00 1.801553190859090936e+00 2.798572509859645674e+00 1.923579900000000009e+01
1.333333299999999966e+01 6.666667000000000343e+00 9.000000000000000000e+01 3.448496489999999994e+02 4.651803499999999758e+01 1.779855619999999874e+02 1.000000000000000000e+01 1.600000000000000000e+01 5.120000000000000000e+02 4.000000000000000000e+00 4.000000000000000000e+00 1.500394523293919313e+01 1.259470852056792323e+00 9.801875967452712279e-01 2.792824632499347204e-01 1.509116999999999997e+01
1.666666700000000034e+01 3.333333000000000101e+00 0.000000000000000000e+00 1.722145449999999869e+02 -4.728412900000000008e+01 1.255477400000000046e+02 2.000000000000000000e+01 8.000000000000000000e+00 2.560000000000000000e+02 4.000000000000000000e+00 4.000000000000000000e+00 1.364535655462234409e+01 2.419170349332361081e+00 1.415047565411337471e+00 2.595786209970268210e+00 1.416999000000000031e+01
1.666666700000000034e+01 3.333333000000000101e+00 3.000000000000000000e+01 3.523624970000000189e+02 4.609428900000000340e+01 9.144787700000000541e+01 2.000000000000000000e+01 8.000000000000000000e+00 2.560000000000000000e+02 4.000000000000000000e+00 4.000000000000000000e+00 1.195009636191516655e+01 2.106067047618223498e+00 1.165693160725489674e+00 2.203236932542246063e+00 1.238763199999999998e+01
1.666666700000000034e+01 3.333333000000000101e+00 0.000000000000000000e+00 1.722145449999999869e+02 -4.728412900000000008e+01 1.255477400000000046e+02 1.000000000000000000e+01 3.200000000000000000e+01 5.120000000000000000e+02 4.000000000000000000e+00 4.000000000000000000e+00 1.998702539869021777e+01 3.708010002791719995e+00 2.168929744207295229e+00 3.978719908804649208e+00 2.082702499999999901e+01
1.666666700000000034e+01 3.333333000000000101e+00 3.000000000000000000e+01 3.523624970000000189e+02 4.609428900000000340e+01 9.144787700000000541e+01 1.000000000000000000e+01 3.200000000000000000e+01 5.120000000000000000e+02 4.000000000000000000e+00 4.000000000000000000e+00 1.750389435016155559e+01 3.228097467908203289e+00 1.786729033508906328e+00 3.377035679459876150e+00 1.820449699999999993e+01
1.666666700000000034e+01 3.333333000000000101e+00 6.000000000000000000e+01 3.523624970000000189e+02 4.609428900000000340e+01 9.144787700000000541e+01 1.000000000000000000e+01 3.200000000000000000e+01 5.120000000000000000e+02 4.000000000000000000e+00 4.000000000000000000e+00 1.249503860013155609e+01 1.974125483708353945e+00 1.255825546715262364e+00 1.950827136300569586e+00 1.286102600000000074e+01
2.000000000000000000e+01 2.000000000000000000e+01 0.000000000000000000e+00 9.943221800000000599e+01 5.901694100000000276e+01 5.596485000000000376e+00 4.000000000000000000e+01 4.000000000000000000e+00 2.560000000000000000e+02 4.000000000000000000e+00 4.000000000000000000e+00 7.945361082431682043e+00 1.093438101237276427e+01 1.093731192106697669e+01 1.094361445242092934e+01 2.054451099999999997e+01
2.000000000000000000e+01 2.000000000000000000e+01 3.000000000000000000e+01 9.943221800000000599e+01 5.901694100000000276e+01 5.596485000000000376e+00 4.000000000000000000e+01 4.000000000000000000e+00 2.560000000000000000e+02 4.000000000000000000e+00 4.000000000000000000e+00 6.948937157314523994e+00 9.528618951793166758e+00 9.557694941981017323e+00 9.479928945273309537e+00 1.789695199999999886e+01
2.000000000000000000e+01 2.000000000000000000e+01 0.000000000000000000e+00 1.763906350000000032e+02 -5.018885800000000330e+01 2.468555999999999973e+00 3.000000000000000000e+01 4.000000000000000000e+00 2.560000000000000000e+02 4.000000000000000000e+00 4.000000000000000000e+00 2.728421440603365511e+01 6.302144589983738499e+00 4.301653109306768918e+00 6.668163001753979024e+00 2.910522299999999873e+01
2.000000000000000000e+01 2.000000000000000000e+01 3.000000000000000000e+01 1.757121480000000133e+02 -5.189988799999999713e+01 1.735795359999999903e+02 3.000000000000000000e+01 4.000000000000000000e+00 2.560000000000000000e+02 4.000000000000000000e+00 4.000000000000000000e+00 2.380610797052441541e+01 5.449271014465307594e+00 3.961515771117182005e+00 5.925377905090289055e+00 2.544069700000000012e+01
2.000000000000000000e+01 2.000000000000000000e+01 6.000000000000000000e+01 1.757121480000000133e+02 -5.189988799999999713e+01 1.735795359999999903e+02 3.000000000000000000e+01 4.000000000000000000e+00 2.560000000000000000e+02 4.000000000000000000e+00 4.000000000000000000e+00 1.700316971137872457e+01 3.483981962827670475e+00 2.726685447451739464e+00 3.421040238184579696e+00 1.789928000000000097e+01
2.000000000000000000e+01 2.000000000000000000e+01 9.000000000000000000e+01 3.523624970000000189e+02 4.609428900000000340e+01 9.144787700000000541e+01 3.000000000000000000e+01 4.000000000000000000e+00 2.560000000000000000e+02 4.000000000000000000e+00 4.000000000000000000e+00 1.374029476659350912e+01 1.413224513835711571e+00 1.555104145017200290e+00 1.418804381645835389e-01 1.390076900000000037e+01
2.000000000000000000e+01 2.000000000000000000e+01 0.000000000000000000e+00 3.514936809999999809e+02 4.702019500000000107e+01 4.412285700000000332e+01 2.000000000000000000e+01 4.000000000000000000e+00 2.560000000000000000e+02 4.000000000000000000e+00 4.000000000000000000e+00 4.134419925606296431e+01 6.741173069406399598e+00 3.867877493516163945e+00 7.287773697840970399e+00 4.269494499999999704e+01
2.000000000000000000e+01 2.000000000000000000e+01 3.000000000000000000e+01 3.523624970000000189e+02 4.609428900000000340e+01 9.144787700000000541e+01 2.000000000000000000e+01 4.000000000000000000e+00 2.560000000000000000e+02 4.000000000000000000e+00 4.000000000000000000e+00 3.618264366011172939e+01 5.932894674122013434e+00 3.283815086870110811e+00 6.206627029130726392e+00 3.733213899999999796e+01
2.000000000000000000e+01 2.000000000000000000e+01 6.000000000000000000e+01 3.523624970000000189e+02 4.609428900000000340e+01 9.144787700000000541e+01 2.000000000000000000e+01 4.000000000000000000e+00 2.560000000000000000e+02 4.000000000000000000e+00 4.000000000000000000e+00 2.582873960180915063e+01 3.628229532961207315e+00 2.308071788972767102e+00 3.585409685473436525e+00 2.642858700000000027e+01
2.000000000000000000e+01 2.000000000000000000e+01 9.000000000000000000e+01 3.448496489999999994e+02 4.651803499999999758e+01 1.779855619999999874e+02 2.000000000000000000e+01 4.000000000000000000e+00 2.560000000000000000e+02 4.000000000000000000e+00 4.000000000000000000e+00 2.068739295376900955e+01 1.613579414371642651e+00 1.255773824179985176e+00 3.578045754367158993e-01 2.079126899999999978e+01
2.000000000000000000e+01 2.000000000000000000e+01 0.000000000000000000e+00 3.514936809999999809e+02 4.702019500000000107e+01 4.412285700000000332e+01 1.000000000000000000e+01 8.000000000000000000e+00 2.560000000000000000e+02 4.000000000000000000e+00 4.000000000000000000e+00 5.811795528787494902e+01 9.042346269351314803e+00 5.188219804432869786e+00 9.775535004080779800e+00 5.984930599999999856e+01
2.000000000000000000e+01 2.000000000000000000e+01 3.000000000000000000e+01 3.523624970000000189e+02 4.609428900000000340e+01 9.144787700000000541e+01 1.000000000000000000e+01 8.000000000000000000e+00 2.560000000000000000e+02 4.000000000000000000e+00 4.000000000000000000e+00 5.086230485228490039e+01 7.958153198360984781e+00 4.404781303532709025e+00 8.325327088369380846e+00 5.233564200000000000e+01
2.000000000000000000e+01 2.000000000000000000e+01 6.000000000000000000e+01 3.523624970000000189e+02 4.609428900000000340e+01 9.144787700000000541e+01 1.000000000000000000e+01 8.000000000000000000e+00 2.560000000000000000e+02 4.000000000000000000e+00 4.000000000000000000e+00 3.630771814016876675e+01 4.866765389931006602e+00 3.095957352753543557e+00 4.809328518899993909e+00 3.707627800000000207e+01
2.000000000000000000e+01 2.000000000000000000e+01 9.000000000000000000e+01 3.448496489999999994e+02 4.651803499999999758e+01 1.779855619999999874e+02 1.000000000000000000e+01 8.000000000000000000e+00 2.560000000000000000e+02 4.000000000000000000e+00 4.000000000000000000e+00 2.908047562521199225e+01 2.164392405835426469e+00 1.684445961750513643e+00 4.799450829322670087e-01 2.921346199999999982e+01
2.666666700000000034e+01 1.333333299999999966e+01 0.000000000000000000e+00 2.867693909999999846e+02 -5.462173599999999851e+01 1.252578429999999940e+02 4.000000000000000000e+01 4.000000000000000000e+00 2.560000000000000000e+02 4.000000000000000000e+00 4.000000000000000000e+00 5.077926303563779165e+00 9.540416747042065992e+00 9.541652038548662063e+00 9.541937806970263836e+00 1.728862600000000072e+01
2.666666700000000034e+01 1.333333299999999966e+01 3.000000000000000000e+01 1.026530300000000011e+02 5.641901399999999711e+01 4.859246999999999872e+00 4.000000000000000000e+01 4.000000000000000000e+00 2.560000000000000000e+02 4.000000000000000000e+00 4.000000000000000000e+00 4.849639205626923300e+00 8.222318443087177187e+00 8.262251849889434396e+00 8.190791734858899886e+00 1.504923199999999994e+01
2.666666700000000034e+01 1.333333299999999966e+01 0.000000000000000000e+00 1.806239569999999901e+02 -5.321735100000000074e+01 7.332242300000000057e+01 3.000000000000000000e+01 4.000000000000000000e+00 2.560000000000000000e+02 4.000000000000000000e+00 4.000000000000000000e+00 2.176512967414075916e+01 5.821807453406108834e+00 4.456265718670096021e+00 6.131238026471113933e+00 2.377108899999999991e+01
2.666666700000000034e+01 1.333333299999999966e+01 3.000000000000000000e+01 1.806239569999999901e+02 -5.321735100000000074e+01 7.332242300000000057e+01 3.000000000000000000e+01 4.000000000000000000e+00 2.560000000000000000e+02 4.000000000000000000e+00 4.000000000000000000e+00 1.903289530512126859e+01 5.076398359391881776e+00 3.885322548178985258e+00 5.311704677785583861e+00 2.076850599999999858e+01
2.666666700000000034e+01 1.333333299999999966e+01 6.000000000000000000e+01 1.757121480000000133e+02 -5.189988799999999713e+01 1.735795359999999903e+02 3.000000000000000000e+01 4.000000000000000000e+00 2.560000000000000000e+02 4.000000000000000000e+00 4.000000000000000000e+00 1.374145639758607551e+01 3.028827486397720037e+00 2.370465725172583582e+00 2.974108596439535290e+00 1.457620799999999939e+01
2.666666700000000034e+01 1.333333299999999966e+01 0.000000000000000000e+00 1.722145449999999869e+02 -4.728412900000000008e+01 1.255477400000000046e+02 2.000000000000000000e+01 4.000000000000000000e+00 2.560000000000000000e+02 4.000000000000000000e+00 4.000000000000000000e+00 3.495466804075871181e+01 5.968664565967025659e+00 3.491256523195837236e+00 6.404417603973702633e+00 3.620302800000000332e+01
2.666666700000000034e+01 1.333333299999999966e+01 3.000000000000000000e+01 3.523624970000000189e+02 4.609428900000000340e+01 9.144787700000000541e+01 2.000000000000000000e+01 4.000000000000000000e+00 2.560000000000000000e+02 4.000000000000000000e+00 4.000000000000000000e+00 3.061199974612050667e+01 5.196164777787906530e+00 2.876040319001302414e+00 5.435905831651751896e+00 3.165304599999999979e+01
2.666666700000000034e+01 1.333333299999999966e+01 6.000000000000000000e+01 3.523624970000000189e+02 4.609428900000000340e+01 9.144787700000000541e+01 2.000000000000000000e+01 4.000000000000000000e+00 2.560000000000000000e+02 4.000000000000000000e+00 4.000000000000000000e+00 2.185217248248888922e+01 3.177686363982664020e+00 2.021462033832756244e+00 3.140183762718445237e+00 2.239558399999999949e+01
2.666666700000000034e+01 1.333333299999999966e+01 9.000000000000000000e+01 3.448496489999999994e+02 4.651803499999999758e+01 1.779855619999999874e+02 2.000000000000000000e+01 4.000000000000000000e+00 2.560000000000000000e+02 4.000000000000000000e+00 4.000000000000000000e+00 1.750238246263945641e+01 1.413209736503934222e+00 1.099835421406280656e+00 3.133734263520794872e-01 1.759654499999999899e+01
2.666666700000000034e+01 1.333333299999999966e+01 0.000000000000000000e+00 3.514936809999999809e+02 4.702019500000000107e+01 4.412285700000000332e+01 1.000000000000000000e+01 8.000000000000000000e+00 2.560000000000000000e+02 4.000000000000000000e+00 4.000000000000000000e+00 5.099756066310230551e+01 8.095522843123287515e+00 4.644961682599227260e+00 8.751939438276401972e+00 5.257813999999999766e+01
2.666666700000000034e+01 1.333333299999999966e+01 3.000000000000000000e+01 3.523624970000000189e+02 4.609428900000000340e+01 9.144787700000000541e+01 1.000000000000000000e+01 8.000000000000000000e+00 2.560000000000000000e+02 4.000000000000000000e+00 4.000000000000000000e+00 4.463084539573871723e+01 7.124855550464094023e+00 3.943556970669908068e+00 7.453582688910059595e+00 4.597590100000000035e+01
2.666666700000000034e+01 1.333333299999999966e+01 6.000000000000000000e+01 3.523624970000000189e+02 4.609428900000000340e+01 9.144787700000000541e+01 1.000000000000000000e+01 8.000000000000000000e+00 2.560000000000000000e+02 4.000000000000000000e+00 4.000000000000000000e+00 3.185943223949542613e+01 4.357166736674276564e+00 2.771779881456566397e+00 4.305744076269737874e+00 3.256118099999999771e+01
2.666666700000000034e+01 1.333333299999999966e+01 9.000000000000000000e+01 3.448496489999999994e+02 4.651803499999999758e+01 1.779855619999999874e+02 1.000000000000000000e+01 8.000000000000000000e+00 2.560000000000000000e+02 4.000000000000000000e+00 4.000000000000000000e+00 2.551764446052387569e+01 1.937759032997113717e+00 1.508067746485041605e+00 4.296900678856221401e-01 2.563911099999999976e+01
3.333333300000000321e+01 6.666667000000000343e+00 0.000000000000000000e+00 1.755281420000000026e+02 -4.916941200000000123e+01 9.940860299999999938e+01 2.000000000000000000e+01 4.000000000000000000e+00 2.560000000000000000e+02 4.000000000000000000e+00 4.000000000000000000e+00 1.853274518358013978e+01 3.745550709066810313e+00 2.445465673513256277e+00 3.945859689230798661e+00 1.946899900000000017e+01
3.333333300000000321e+01 6.666667000000000343e+00 3.000000000000000000e+01 3.523624970000000189e+02 4.609428900000000340e+01 9.144787700000000541e+01 2.000000000000000000e+01 4.000000000000000000e+00 2.560000000000000000e+02 4.000000000000000000e+00 4.000000000000000000e+00 1.631749149321625225e+01 3.106316862751313579e+00 1.719324333026582385e+00 3.249636351289178826e+00 1.701252300000000162e+01
3.333333300000000321e+01 6.666667000000000343e+00 6.000000000000000000e+01 3.523624970000000189e+02 4.609428900000000340e+01 9.144787700000000541e+01 2.000000000000000000e+01 4.000000000000000000e+00 2.560000000000000000e+02 4.000000000000000000e+00 4.000000000000000000e+00 1.164813280898107983e+01 1.899651215675354665e+00 1.208449283584778655e+00 1.877231802957331830e+00 1.201132899999999992e+01
3.333333300000000321e+01 6.666667000000000343e+00 0.000000000000000000e+00 1.722145449999999869e+02 -4.728412900000000008e+01 1.255477400000000046e+02 1.000000000000000000e+01 8.000000000000000000e+00 2.560000000000000000e+02 4.000000000000000000e+00 4.000000000000000000e+00 3.048060505332044912e+01 5.393348491899668140e+00 3.154736356199041136e+00 5.787099550348240307e+00 3.164803900000000070e+01
3.333333300000000321e+01 6.666667000000000343e+00 3.000000000000000000e+01 3.523624970000000189e+02 4.609428900000000340e+01 9.144787700000000541e+01 1.000000000000000000e+01 8.000000000000000000e+00 2.560000000000000000e+02 4.000000000000000000e+00 4.000000000000000000e+00 2.669378158779368349e+01 4.695309504866452599e+00 2.598820480811387057e+00 4.911942059269938099e+00 2.766739899999999963e+01
3.333333300000000321e+01 6.666667000000000343e+00 6.000000000000000000e+01 3.523624970000000189e+02 4.609428900000000340e+01 9.144787700000000541e+01 1.000000000000000000e+01 8.000000000000000000e+00 2.560000000000000000e+02 4.000000000000000000e+00 4.000000000000000000e+00 1.905517850202772578e+01 2.871391040575142384e+00 1.826614494935677069e+00 2.837503293033759366e+00 1.956355399999999989e+01
3.333333300000000321e+01 6.666667000000000343e+00 9.000000000000000000e+01 3.448496489999999994e+02 4.651803499999999758e+01 1.779855619999999874e+02 1.000000000000000000e+01 8.000000000000000000e+00 2.560000000000000000e+02 4.000000000000000000e+00 4.000000000000000000e+00 1.526214486470905918e+01 1.276991279518576494e+00 9.938229307108578103e-01 2.831675457278087227e-01 1.535029800000000044e+01
4.000000000000000000e+01 4.000000000000000000e+01 0.000000000000000000e+00 2.905092010000000187e+02 -4.476577799999999741e+01 9.375883500000000481e+01 4.000000000000000000e+01 4.000000000000000000e+00 2.560000000000000000e+02 4.000000000000000000e+00 4.000000000000000000e+00 7.215252103308193998e-01 7.371455729242755162e+00 7.371455731707452941e+00 7.371455865525886608e+00 1.278810700000000011e+01
4.000000000000000000e+01 4.000000000000000000e+01 0.000000000000000000e+00 2.907526139999999941e+02 -4.578540199999999771e+01 1.775893079999999884e+02 3.000000000000000000e+01 4.000000000000000000e+00 2.560000000000000000e+02 4.000000000000000000e+00 4.000000000000000000e+00 2.568570160440911909e+00 1.556443032298830076e+01 1.556443351864404434e+01 1.556443293207145295e+01 2.708047600000000088e+01
4.000000000000000000e+01 4.000000000000000000e+01 3.000000000000000000e+01 2.907526139999999941e+02 -4.578540199999999771e+01 1.775893079999999884e+02 3.000000000000000000e+01 4.000000000000000000e+00 2.560000000000000000e+02 4.000000000000000000e+00 4.000000000000000000e+00 2.236969122749424610e+00 1.350727420364396991e+01 1.361838484129036964e+01 1.352171957920194600e+01 2.357430400000000148e+01
4.000000000000000000e+01 4.000000000000000000e+01 6.000000000000000000e+01 2.924926479999999742e+02 -4.526057600000000036e+01 7.654072899999999890e+01 3.000000000000000000e+01 4.000000000000000000e+00 2.560000000000000000e+02 4.000000000000000000e+00 4.000000000000000000e+00 1.482154924856408540e+00 8.852171751753710183e+00 9.591684658607082525e+00 7.906600426538576087e+00 1.533207299999999940e+01
4.000000000000000000e+01 4.000000000000000000e+01 0.000000000000000000e+00 2.827253719999999930e+02 -5.716967900000000213e+01 2.537355999999999945e+00 2.000000000000000000e+01 4.000000000000000000e+00 2.560000000000000000e+02 4.000000000000000000e+00 4.000000000000000000e+00 1.519753600595379694e+01 2.386127165850516718e+01 2.386644542231672261e+01 2.387224055068714534e+01 4.404334800000000172e+01
4.000000000000000000e+01 4.000000000000000000e+01 3.000000000000000000e+01 2.832835969999999861e+02 -5.768292699999999940e+01 1.747247659999999883e+02 2.000000000000000000e+01 4.000000000000000000e+00 2.560000000000000000e+02 4.000000000000000000e+00 4.000000000000000000e+00 1.342941839284845784e+01 2.073482188428054585e+01 2.083874666205318960e+01 2.065800109109553873e+01 3.835737900000000167e+01
4.000000000000000000e+01 4.000000000000000000e+01 6.000000000000000000e+01 2.719639450000000238e+02 -6.199027099999999990e+01 1.755478050000000110e+02 2.000000000000000000e+01 4.000000000000000000e+00 2.560000000000000000e+02 4.000000000000000000e+00 4.000000000000000000e+00 1.159097881779878669e+01 1.372362451163276553e+01 1.362820981190154868e+01 1.149568627330161341e+01 2.530943600000000160e+01
4.000000000000000000e+01 4.000000000000000000e+01 9.000000000000000000e+01 1.893039640000000077e+02 -5.925810500000000047e+01 1.598999509999999873e+02 2.000000000000000000e+01 4.000000000000000000e+00 2.560000000000000000e+02 4.000000000000000000e+00 4.000000000000000000e+00 1.572416747382328062e+01 5.765392899114928582e+00 5.538106906165383592e+00 2.272846249948171637e-01 1.764118699999999862e+01
4.000000000000000000e+01 4.000000000000000000e+01 0.000000000000000000e+00 3.514936809999999809e+02 4.702019500000000107e+01 4.412285700000000332e+01 1.000000000000000000e+01 4.000000000000000000e+00 2.560000000000000000e+02 4.000000000000000000e+00 4.000000000000000000e+00 9.141788028321187198e+01 1.514564953384147294e+01 8.690107248913500726e+00 1.637371792312798391e+01 9.449992699999999957e+01
4.000000000000000000e+01 4.000000000000000000e+01 3.000000000000000000e+01 3.523624970000000189e+02 4.609428900000000340e+01 9.144787700000000541e+01 1.000000000000000000e+01 4.000000000000000000e+00 2.560000000000000000e+02 4.000000000000000000e+00 4.000000000000000000e+00 8.000494981082846380e+01 1.332965976845319744e+01 7.377872059892894185e+00 1.394466464554947827e+01 8.262783100000000047e+01
4.000000000000000000e+01 4.000000000000000000e+01 6.000000000000000000e+01 3.523624970000000189e+02 4.609428900000000340e+01 9.144787700000000541e+01 1.000000000000000000e+01 4.000000000000000000e+00 2.560000000000000000e+02 4.000000000000000000e+00 4.000000000000000000e+00 5.711100147714629571e+01 8.151681075205301497e+00 5.185632538255873669e+00 8.055476097753293985e+00 5.847989299999999702e+01
4.000000000000000000e+01 4.000000000000000000e+01 9.000000000000000000e+01 3.448496489999999994e+02 4.651803499999999758e+01 1.779855619999999874e+02 1.000000000000000000e+01 4.000000000000000000e+00 2.560000000000000000e+02 4.000000000000000000e+00 4.000000000000000000e+00 4.574275585086050455e+01 3.625290146607382802e+00 2.821394739310068012e+00 8.038931274088523260e-01 4.597987599999999730e+01
5.333333300000000321e+01 2.666666700000000034e+01 0.000000000000000000e+00 2.905092010000000187e+02 -4.476577799999999741e+01 9.375883500000000481e+01 3.000000000000000000e+01 4.000000000000000000e+00 2.560000000000000000e+02 4.000000000000000000e+00 4.000000000000000000e+00 1.733095748209774412e+00 1.217338266364843236e+01 1.217338266771868938e+01 1.217338288870936580e+01 2.115602399999999861e+01
5.333333300000000321e+01 2.666666700000000034e+01 3.000000000000000000e+01 2.905092010000000187e+02 -4.476577799999999741e+01 9.375883500000000481e+01 3.000000000000000000e+01 4.000000000000000000e+00 2.560000000000000000e+02 4.000000000000000000e+00 4.000000000000000000e+00 1.506453443999957953e+00 1.054941053922927452e+01 1.064401774364662856e+01 1.059803577746654213e+01 1.841664799999999858e+01
5.333333300000000321e+01 2.666666700000000034e+01 0.000000000000000000e+00 1.077206019999999995e+02 5.295124899999999712e+01 4.316135599999999783e+01 2.000000000000000000e+01 4.000000000000000000e+00 2.560000000000000000e+02 4.000000000000000000e+00 4.000000000000000000e+00 9.738267885312005490e+00 2.063085046872783224e+01 2.063224333955501066e+01 2.063250077104502722e+01 3.703856600000000299e+01
5.333333300000000321e+01 2.666666700000000034e+01 3.000000000000000000e+01 2.867743580000000065e+02 -5.240100499999999784e+01 1.771794280000000015e+02 2.000000000000000000e+01 4.000000000000000000e+00 2.560000000000000000e+02 4.000000000000000000e+00 4.000000000000000000e+00 8.367430545236276274e+00 1.794125486953902282e+01 1.807043723937226076e+01 1.792369948283351633e+01 3.224441399999999902e+01
5.333333300000000321e+01 2.666666700000000034e+01 6.000000000000000000e+01 1.002373709999999960e+02 5.632578000000000173e+01 1.256087199999999982e+01 2.000000000000000000e+01 4.000000000000000000e+00 2.560000000000000000e+02 4.000000000000000000e+00 4.000000000000000000e+00 7.244818135625620492e+00 1.218978687239886405e+01 1.196166934013502292e+01 1.014357803481698284e+01 2.114360399999999984e+01
5.333333300000000321e+01 2.666666700000000034e+01 9.000000000000000000e+01 5.115277799999999786e+01 6.123230699999999871e+01 1.431397589999999980e+02 2.000000000000000000e+01 4.000000000000000000e+00 2.560000000000000000e+02 4.000000000000000000e+00 4.000000000000000000e+00 9.859330290842391875e+00 6.021264546359651249e+00 7.799751149599741140e+00 1.778487206427447953e+00 1.405208700000000022e+01
5.333333300000000321e+01 2.666666700000000034e+01 0.000000000000000000e+00 1.722145449999999869e+02 -4.728412900000000008e+01 1.255477400000000046e+02 1.000000000000000000e+01 4.000000000000000000e+00 2.560000000000000000e+02 4.000000000000000000e+00 4.000000000000000000e+00 7.697329189212521783e+01 1.339836977737642165e+01 7.837120911799253520e+00 1.437654174035097121e+01 7.982799900000000548e+01
5.333333300000000321e+01 2.666666700000000034e+01 3.000000000000000000e+01 3.523624970000000189e+02 4.609428900000000340e+01 9.144787700000000541e+01 1.000000000000000000e+01 4.000000000000000000e+00 2.560000000000000000e+02 4.000000000000000000e+00 4.000000000000000000e+00 6.741034957368891867e+01 1.166427369933825275e+01 6.456092692550210899e+00 1.220244086470404632e+01 6.979105400000000259e+01
5.333333300000000321e+01 2.666666700000000034e+01 6.000000000000000000e+01 3.523624970000000189e+02 4.609428900000000340e+01 9.144787700000000541e+01 1.000000000000000000e+01 4.000000000000000000e+00 2.560000000000000000e+02 4.000000000000000000e+00 4.000000000000000000e+00 4.812042983816516539e+01 7.133223264703346445e+00 4.537748020663070037e+00 7.049037981077829862e+00 4.936333400000000182e+01
5.333333300000000321e+01 2.666666700000000034e+01 9.000000000000000000e+01 3.448496489999999994e+02 4.651803499999999758e+01 1.779855619999999874e+02 1.000000000000000000e+01 4.000000000000000000e+00 2.560000000000000000e+02 4.000000000000000000e+00 4.000000000000000000e+00 3.854180484659291039e+01 3.172352276358934908e+00 2.468894257231640577e+00 7.034560240843986678e-01 3.875725500000000068e+01
6.666666700000000390e+01 1.333333299999999966e+01 0.000000000000000000e+00 1.091310699999999940e+02 4.840705400000000225e+01 4.151575900000000274e+01 2.000000000000000000e+01 4.000000000000000000e+00 2.560000000000000000e+02 4.000000000000000000e+00 4.000000000000000000e+00 3.227488809639964984e+00 1.105279531301967566e+01 1.105283784909819111e+01 1.105286319653118454e+01 1.941422100000000128e+01
6.666666700000000390e+01 1.333333299999999966e+01 3.000000000000000000e+01 1.091310699999999940e+02 4.840705400000000225e+01 4.151575900000000274e+01 2.000000000000000000e+01 4.000000000000000000e+00 2.560000000000000000e+02 4.000000000000000000e+00 4.000000000000000000e+00 2.812083271302732168e+00 9.662620226733865891e+00 9.576975566049121369e+00 9.625487655376124607e+00 1.690096199999999982e+01
6.666666700000000390e+01 1.333333299999999966e+01 0.000000000000000000e+00 1.755281420000000026e+02 -4.916941200000000123e+01 9.940860299999999938e+01 1.000000000000000000e+01 4.000000000000000000e+00 2.560000000000000000e+02 4.000000000000000000e+00 4.000000000000000000e+00 4.032600051158011212e+01 8.370944255524012334e+00 5.465379705639386465e+00 8.818615489229289395e+00 4.247231299999999976e+01
6.666666700000000390e+01 1.333333299999999966e+01 3.000000000000000000e+01 1.757121480000000133e+02 -5.189988799999999713e+01 1.735795359999999903e+02 1.000000000000000000e+01 4.000000000000000000e+00 2.560000000000000000e+02 4.000000000000000000e+00 4.000000000000000000e+00 3.508941207086041203e+01 7.333550886131663837e+00 5.331351187448988505e+00 7.974288720672788600e+00 3.710876400000000075e+01
6.666666700000000390e+01 1.333333299999999966e+01 6.000000000000000000e+01 3.523624970000000189e+02 4.609428900000000340e+01 9.144787700000000541e+01 1.000000000000000000e+01 4.000000000000000000e+00 2.560000000000000000e+02 4.000000000000000000e+00 4.000000000000000000e+00 2.534554945643425583e+01 4.245537082935052275e+00 2.700767490352958600e+00 4.195431859783257167e+00 2.617856499999999897e+01
6.666666700000000390e+01 1.333333299999999966e+01 9.000000000000000000e+01 3.523624970000000189e+02 4.609428900000000340e+01 9.144787700000000541e+01 1.000000000000000000e+01 4.000000000000000000e+00 2.560000000000000000e+02 4.000000000000000000e+00 4.000000000000000000e+00 2.025273789554544734e+01 1.901897310343226399e+00 2.092836885969588057e+00 1.909406616526531930e-01 2.045011099999999971e+01
8.000000000000000000e+01 8.000000000000000000e+01 0.000000000000000000e+00 1.106906330000000054e+02 4.367993500000000040e+01 1.298225810000000138e+02 2.000000000000000000e+01 4.000000000000000000e+00 2.560000000000000000e+02 4.000000000000000000e+00 4.000000000000000000e+00 1.289749483576231759e+00 1.486821838015210062e+01 1.486821837652371947e+01 1.486821837388084511e+01 2.578478600000000043e+01
8.000000000000000000e+01 8.000000000000000000e+01 3.000000000000000000e+01 1.106906330000000054e+02 4.367993500000000040e+01 1.298225810000000138e+02 2.000000000000000000e+01 4.000000000000000000e+00 2.560000000000000000e+02 4.000000000000000000e+00 4.000000000000000000e+00 1.124988304920377713e+00 1.300443354398461260e+01 1.288978329480534590e+01 1.293496019743564673e+01 2.244639400000000151e+01
8.000000000000000000e+01 8.000000000000000000e+01 6.000000000000000000e+01 1.106906330000000054e+02 4.367993500000000040e+01 1.298225810000000138e+02 2.000000000000000000e+01 4.000000000000000000e+00 2.560000000000000000e+02 4.000000000000000000e+00 4.000000000000000000e+00 7.602229464868157649e-01 9.226167161931678962e+00 7.642195724096641385e+00 8.300800762338997885e+00 1.459474400000000038e+01
8.000000000000000000e+01 8.000000000000000000e+01 0.000000000000000000e+00 1.077206019999999995e+02 5.295124899999999712e+01 4.316135599999999783e+01 1.000000000000000000e+01 4.000000000000000000e+00 2.560000000000000000e+02 4.000000000000000000e+00 4.000000000000000000e+00 2.582560650339957320e+01 5.399056433050628812e+01 5.399420944838995950e+01 5.399488314196567984e+01 9.701940600000000359e+01
8.000000000000000000e+01 8.000000000000000000e+01 3.000000000000000000e+01 2.867743580000000065e+02 -5.240100499999999784e+01 1.771794280000000015e+02 1.000000000000000000e+01 4.000000000000000000e+00 2.560000000000000000e+02 4.000000000000000000e+00 4.000000000000000000e+00 2.219018528251081790e+01 4.695194105895657799e+01 4.729000899558482729e+01 4.690599892793743209e+01 8.445949799999999641e+01
8.000000000000000000e+01 8.000000000000000000e+01 6.000000000000000000e+01 1.002373709999999960e+02 5.632578000000000173e+01 1.256087199999999982e+01 1.000000000000000000e+01 4.000000000000000000e+00 2.560000000000000000e+02 4.000000000000000000e+00 4.000000000000000000e+00 1.921304944194042363e+01 3.190045283431277667e+01 3.130347335839267231e+01 2.654556113721216093e+01 5.541980199999999712e+01
8.000000000000000000e+01 8.000000000000000000e+01 9.000000000000000000e+01 5.115277799999999786e+01 6.123230699999999871e+01 1.431397589999999980e+02 1.000000000000000000e+01 4.000000000000000000e+00 2.560000000000000000e+02 4.000000000000000000e+00 4.000000000000000000e+00 2.614666052290322185e+01 1.575754093773303310e+01 2.041180836644261021e+01 4.654269007240037226e+00 3.701691600000000193e+01
1.066666670000000039e+02 5.333333300000000321e+01 0.000000000000000000e+00 1.106906330000000054e+02 4.367993500000000040e+01 1.298225810000000138e+02 2.000000000000000000e+01 4.000000000000000000e+00 2.560000000000000000e+02 4.000000000000000000e+00 4.000000000000000000e+00 8.634367034989086642e-01 1.084752826782988500e+01 1.084752826518269764e+01 1.084752826325451380e+01 1.880829999999999913e+01
1.066666670000000039e+02 5.333333300000000321e+01 3.000000000000000000e+01 1.106906330000000054e+02 4.367993500000000040e+01 1.298225810000000138e+02 2.000000000000000000e+01 4.000000000000000000e+00 2.560000000000000000e+02 4.000000000000000000e+00 4.000000000000000000e+00 7.531355552722444058e-01 9.487751448673918730e+00 9.404105124206015631e+00 9.437065208313294207e+00 1.637314999999999898e+01
1.066666670000000039e+02 5.333333300000000321e+01 0.000000000000000000e+00 1.094699700000000036e+02 5.150770599999999888e+01 2.551459099999999935e+01 1.000000000000000000e+01 4.000000000000000000e+00 2.560000000000000000e+02 4.000000000000000000e+00 4.000000000000000000e+00 1.830902151949442214e+01 4.575111860730572033e+01 4.575287617392267236e+01 4.575251662906792660e+01 8.133267200000000230e+01
1.066666670000000039e+02 5.333333300000000321e+01 3.000000000000000000e+01 1.094699700000000036e+02 5.150770599999999888e+01 2.551459099999999935e+01 1.000000000000000000e+01 4.000000000000000000e+00 2.560000000000000000e+02 4.000000000000000000e+00 4.000000000000000000e+00 1.601902987992357552e+01 4.000384252363764404e+01 3.983100166912264228e+01 3.964946987015554214e+01 7.082023599999999419e+01
1.066666670000000039e+02 5.333333300000000321e+01 6.000000000000000000e+01 1.094699700000000036e+02 5.150770599999999888e+01 2.551459099999999935e+01 1.000000000000000000e+01 4.000000000000000000e+00 2.560000000000000000e+02 4.000000000000000000e+00 4.000000000000000000e+00 1.142594049242529231e+01 2.823464538604257612e+01 2.592221706335892861e+01 2.328778848568394721e+01 4.628206699999999785e+01
1.066666670000000039e+02 5.333333300000000321e+01 9.000000000000000000e+01 2.677080470000000219e+02 -6.310766000000000275e+01 8.835587999999999909e+01 1.000000000000000000e+01 4.000000000000000000e+00 2.560000000000000000e+02 4.000000000000000000e+00 4.000000000000000000e+00 1.507207181430141674e+01 1.882385010335071840e+01 1.776399351267502880e+01 1.059855804212158414e+00 2.996977499999999850e+01
1.333333330000000103e+02 2.666666700000000034e+01 0.000000000000000000e+00 2.893800400000000081e+02 -4.684940199999999777e+01 1.332503979999999899e+02 1.000000000000000000e+01 4.000000000000000000e+00 2.560000000000000000e+02 4.000000000000000000e+00 4.000000000000000000e+00 5.853465692518201813e+00 2.396900490790185145e+01 2.396901546848146580e+01 2.396903857972760932e+01 4.192618199999999717e+01
1.333333330000000103e+02 2.666666700000000034e+01 3.000000000000000000e+01 2.893800400000000081e+02 -4.684940199999999777e+01 1.332503979999999899e+02 1.000000000000000000e+01 4.000000000000000000e+00 2.560000000000000000e+02 4.000000000000000000e+00 4.000000000000000000e+00 5.090404728233535181e+00 2.092807392414434631e+01 2.075828706982311544e+01 2.091006203498994154e+01 3.649703699999999884e+01
1.333333330000000103e+02 2.666666700000000034e+01 6.000000000000000000e+01 2.919508389999999736e+02 -4.972559199999999890e+01 1.547344929999999863e+02 1.000000000000000000e+01 4.000000000000000000e+00 2.560000000000000000e+02 4.000000000000000000e+00 4.000000000000000000e+00 4.201685148984718232e+00 1.462229036858514597e+01 1.373994402809691806e+01 1.205048304426395411e+01 2.377952300000000108e+01
1.333333330000000103e+02 2.666666700000000034e+01 9.000000000000000000e+01 1.094699700000000036e+02 5.150770599999999888e+01 2.551459099999999935e+01 1.000000000000000000e+01 4.000000000000000000e+00 2.560000000000000000e+02 4.000000000000000000e+00 4.000000000000000000e+00 3.671116836800469407e+00 1.147027160951624403e+01 8.449434510235390050e+00 3.020837068913165169e+00 1.501874300000000062e+01
1.250000000000000000e+02 1.250000000000000000e+02 0.000000000000000000e+00 2.905092010000000187e+02 -4.476577799999999741e+01 9.375883500000000481e+01 1.000000000000000000e+01 4.000000000000000000e+00 2.560000000000000000e+02 4.000000000000000000e+00 4.000000000000000000e+00 6.088313087192779527e+00 4.678950674009231392e+01 4.678950675573671703e+01 4.678950760513454554e+01 8.127017600000000641e+01
1.250000000000000000e+02 1.250000000000000000e+02 3.000000000000000000e+01 2.905092010000000187e+02 -4.476577799999999741e+01 9.375883500000000481e+01 1.000000000000000000e+01 4.000000000000000000e+00 2.560000000000000000e+02 4.000000000000000000e+00 4.000000000000000000e+00 5.292125508833355418e+00 4.054762173896320832e+01 4.091125315933789608e+01 4.073451727778785880e+01 7.074706899999999621e+01
1.250000000000000000e+02 1.250000000000000000e+02 6.000000000000000000e+01 2.924926479999999742e+02 -4.526057600000000036e+01 7.654072899999999890e+01 1.000000000000000000e+01 4.000000000000000000e+00 2.560000000000000000e+02 4.000000000000000000e+00 4.000000000000000000e+00 3.747119070329885560e+00 2.659822682039131791e+01 2.882025013678213909e+01 2.375705729857904913e+01 4.600555599999999856e+01
1.250000000000000000e+02 1.250000000000000000e+02 9.000000000000000000e+01 1.078266809999999936e+02 4.403911000000000087e+01 1.493771100000000018e+01 1.000000000000000000e+01 4.000000000000000000e+00 2.560000000000000000e+02 4.000000000000000000e+00 4.000000000000000000e+00 2.983086065066268056e+00 1.930797136886249987e+01 2.106976555298043507e+01 1.761793376367771335e+00 2.878776600000000130e+01
1.666666669999999897e+02 8.333333299999999610e+01 0.000000000000000000e+00 2.905092010000000187e+02 -4.476577799999999741e+01 9.375883500000000481e+01 1.000000000000000000e+01 4.000000000000000000e+00 2.560000000000000000e+02 4.000000000000000000e+00 4.000000000000000000e+00 4.303231675585304394e+00 3.563254183727723756e+01 3.563254184919122736e+01 3.563254249605002144e+01 6.186721200000000209e+01
1.666666669999999897e+02 8.333333299999999610e+01 3.000000000000000000e+01 2.905092010000000187e+02 -4.476577799999999741e+01 9.375883500000000481e+01 1.000000000000000000e+01 4.000000000000000000e+00 2.560000000000000000e+02 4.000000000000000000e+00 4.000000000000000000e+00 3.740484727812356081e+00 3.087903525124547954e+01 3.115595870486990293e+01 3.102136552079422316e+01 5.385652199999999823e+01
1.666666669999999897e+02 8.333333299999999610e+01 6.000000000000000000e+01 2.924926479999999742e+02 -4.526057600000000036e+01 7.654072899999999890e+01 1.000000000000000000e+01 4.000000000000000000e+00 2.560000000000000000e+02 4.000000000000000000e+00 4.000000000000000000e+00 2.648471135551960121e+00 2.025587564407637231e+01 2.194805716726516209e+01 1.809218342105010890e+01 3.501941200000000265e+01
1.666666669999999897e+02 8.333333299999999610e+01 9.000000000000000000e+01 1.078266809999999936e+02 4.403911000000000087e+01 1.493771100000000018e+01 1.000000000000000000e+01 4.000000000000000000e+00 2.560000000000000000e+02 4.000000000000000000e+00 4.000000000000000000e+00 2.108451103343171429e+00 1.470398269884788967e+01 1.604567679541040448e+01 1.341693481420503042e+00 2.190699800000000153e+01
2.083333330000000103e+02 4.166666699999999679e+01 0.000000000000000000e+00 2.905092010000000187e+02 -4.476577799999999741e+01 9.375883500000000481e+01 1.000000000000000000e+01 4.000000000000000000e+00 2.560000000000000000e+02 4.000000000000000000e+00 4.000000000000000000e+00 1.435653592579978044e+00 1.429746559451014498e+01 1.429746559929060190e+01 1.429746585884102394e+01 2.480551699999999826e+01
2.083333330000000103e+02 4.166666699999999679e+01 3.000000000000000000e+01 2.905092010000000187e+02 -4.476577799999999741e+01 9.375883500000000481e+01 1.000000000000000000e+01 4.000000000000000000e+00 2.560000000000000000e+02 4.000000000000000000e+00 4.000000000000000000e+00 1.247908721238891738e+00 1.239013332566912950e+01 1.250124814786141236e+01 1.244724297956986803e+01 2.159369699999999881e+01
2.083333330000000103e+02 4.166666699999999679e+01 6.000000000000000000e+01 1.106906330000000054e+02 4.367993500000000040e+01 1.298225810000000138e+02 1.000000000000000000e+01 4.000000000000000000e+00 2.560000000000000000e+02 4.000000000000000000e+00 4.000000000000000000e+00 7.830738854266063864e-01 8.873881043557192427e+00 7.350390967013049170e+00 7.983848247969842937e+00 1.404026499999999977e+01
